# Trouble in Terrorist Town weapon/ammo placement overrides
# For map: cs_meridian
# Exported by: Zeek
setting:	replacespawns 0
weapon_ttt_smokegrenade	-1623.750000 867.093750 -48.156250	-0.703 -1.714 -1.055
weapon_ttt_smokegrenade	70.781250 788.968750 88.750000	6.416 -52.471 -90.000
weapon_ttt_smokegrenade	-1197.062500 909.312500 73.125000	-2.856 -1.187 -1.582
weapon_ttt_smokegrenade	-1852.125000 820.718750 256.156250	-1.846 -1.450 -1.011
weapon_ttt_smokegrenade	-1853.968750 863.125000 256.156250	-2.241 -1.362 -1.230
weapon_ttt_smokegrenade	-1847.937500 765.812500 256.125000	-2.681 -1.230 -1.494
ttt_random_weapon	-336.718750 627.843750 230.312500	-1.450 -6.636 -113.159
ttt_random_weapon	-1372.843750 734.062500 227.781250	-11.250 5.186 -103.271
ttt_random_weapon	-259.531250 657.937500 -66.375000	-0.308 5.889 67.676
ttt_random_weapon	-225.625000 803.718750 83.093750	-21.270 -1.714 86.484
ttt_random_weapon	-611.750000 768.718750 110.656250	-3.823 4.219 -14.326
item_ammo_smg1_ttt	-2598.125000 880.218750 -221.500000	-0.088 0.000 0.132
item_ammo_smg1_ttt	-2580.843750 877.500000 -221.500000	-0.044 -0.044 0.132
item_ammo_smg1_ttt	-2102.187500 956.437500 -59.593750	0.088 0.000 0.044
item_ammo_smg1_ttt	-1493.625000 860.812500 -74.625000	0.220 0.308 6.372
item_ammo_smg1_ttt	-2085.531250 959.312500 -59.468750	0.132 -0.044 0.000
item_ammo_smg1_ttt	-229.875000 1167.281250 -64.437500	0.000 0.308 0.044
item_ammo_smg1_ttt	-253.093750 1169.000000 -64.562500	-0.483 0.176 -0.396
item_ammo_smg1_ttt	-1655.000000 847.562500 78.937500	-0.176 0.000 -0.132
item_ammo_smg1_ttt	-1641.531250 845.281250 78.937500	-0.220 0.000 -0.176
item_ammo_smg1_ttt	-1743.218750 845.375000 78.906250	-0.791 0.000 -0.615
item_ammo_smg1_ttt	70.062500 777.906250 87.625000	-0.352 9.404 -0.132
item_ammo_smg1_ttt	1288.843750 700.500000 -83.312500	5.669 2.373 -17.314
weapon_ttt_m16	-2592.937500 774.375000 -221.031250	2.021 -5.977 84.507
weapon_ttt_m16	-1319.093750 836.375000 -54.718750	18.545 -17.183 -91.582
weapon_ttt_m16	-2098.562500 832.312500 -59.125000	2.109 -5.977 83.979
weapon_ttt_m16	-583.156250 855.250000 240.281250	2.109 -5.713 83.892
weapon_ttt_m16	-1052.093750 1106.531250 83.812500	2.021 -3.647 83.452
item_box_buckshot_ttt	-2595.687500 963.187500 -221.500000	-0.044 0.044 -0.132
item_box_buckshot_ttt	-2584.031250 959.062500 -221.531250	1.538 0.044 -0.308
item_box_buckshot_ttt	-1869.875000 862.000000 -61.500000	-0.571 -0.044 0.615
ttt_random_ammo	370.781250 1064.718750 -72.625000	0.000 -25.576 90.000
ttt_random_ammo	365.000000 1025.156250 -74.906250	0.000 -54.756 -0.044
ttt_random_ammo	-158.437500 967.937500 -80.250000	0.000 0.000 -0.044
ttt_random_ammo	-54.875000 888.250000 -64.656250	0.044 0.000 0.044
ttt_random_ammo	-618.781250 618.062500 230.906250	1.538 -11.777 -107.490
ttt_random_ammo	-564.656250 607.312500 231.812500	1.538 -11.821 -107.622
ttt_random_ammo	-161.281250 787.031250 -56.625000	0.088 0.000 0.044
ttt_random_ammo	-170.281250 824.812500 -56.593750	0.176 0.000 0.132
ttt_random_ammo	388.812500 808.593750 -54.593750	0.615 0.000 0.703
ttt_random_ammo	388.500000 796.250000 -54.625000	0.044 0.000 -0.044
ttt_random_ammo	-169.718750 1058.656250 -80.218750	-0.264 0.000 -0.396
ttt_random_ammo	-210.656250 1056.562500 -80.281250	0.044 0.000 -0.044
ttt_random_ammo	-101.031250 622.312500 -55.656250	0.044 0.000 -0.044
ttt_random_ammo	-147.656250 626.062500 -55.625000	0.044 0.000 0.000
ttt_random_ammo	-76.937500 896.625000 -64.531250	0.044 -0.308 -0.132
ttt_random_ammo	-226.187500 776.000000 84.625000	-71.982 -177.056 175.254
ttt_random_ammo	-222.906250 821.312500 85.593750	-72.466 167.695 -159.390
ttt_random_ammo	-386.625000 768.156250 108.406250	0.879 -0.791 0.571
ttt_random_ammo	-473.968750 768.281250 108.437500	0.835 0.088 0.000
ttt_random_ammo	-533.812500 768.281250 108.406250	1.626 -0.088 0.615
ttt_random_ammo	-824.468750 908.125000 97.437500	-1.362 -2.681 0.000
ttt_random_ammo	-802.437500 908.281250 97.468750	0.527 0.044 0.264
ttt_random_ammo	1318.656250 939.000000 -83.093750	5.537 28.521 107.754
ttt_random_ammo	1316.500000 1027.062500 -83.312500	5.493 28.521 107.754
ttt_random_ammo	357.687500 845.343750 38.312500	0.044 0.000 -0.044
ttt_random_ammo	-119.968750 1108.625000 38.343750	0.088 0.000 0.044
ttt_random_ammo	451.875000 973.656250 94.312500	-0.176 -0.132 -0.044
ttt_random_ammo	434.375000 1022.937500 94.343750	0.088 0.000 0.044
ttt_random_ammo	-2059.937500 1085.968750 -239.593750	0.791 0.000 0.923
ttt_random_ammo	-1876.812500 781.281250 -61.531250	1.055 0.044 1.274
ttt_random_ammo	291.281250 1153.125000 94.343750	0.615 -0.176 0.439
ttt_random_ammo	-1234.031250 951.437500 -99.500000	1.714 -0.044 2.109
ttt_random_ammo	-878.625000 799.093750 -61.156250	0.483 0.000 0.527
weapon_zm_rifle	-457.812500 854.843750 238.593750	3.472 13.359 65.303
weapon_zm_rifle	32.000000 926.531250 -67.625000	19.248 -3.779 -90.703
weapon_zm_rifle	185.312500 854.468750 113.406250	-5.273 -4.790 -87.188
weapon_zm_mac10	-2590.562500 857.843750 -221.187500	0.264 43.945 86.968
weapon_zm_mac10	-2100.968750 978.406250 -58.687500	-0.967 -50.186 -89.033
weapon_zm_mac10	-1490.031250 870.937500 -74.625000	-0.308 -54.580 -88.462
weapon_zm_mac10	-244.968750 1179.437500 -61.875000	30.322 -33.662 -42.627
weapon_zm_mac10	-1765.718750 852.187500 79.656250	-0.132 -50.625 -88.462
weapon_zm_mac10	-1626.062500 858.187500 79.656250	-0.132 -50.625 -88.418
weapon_zm_mac10	-845.656250 790.781250 41.187500	-0.132 -50.625 -88.330
weapon_zm_mac10	1466.656250 836.218750 -81.812500	-1.670 -26.191 -69.653
ttt_playerspawn	-2392.562500 857.531250 -221.406250	-0.044 0.000 0.000
ttt_playerspawn	-2521.500000 753.031250 -221.468750	-0.044 0.000 0.044
ttt_playerspawn	-2481.875000 700.625000 -221.468750	-0.044 0.000 0.044
ttt_playerspawn	-2030.437500 792.562500 -99.437500	0.044 -0.088 -0.132
ttt_playerspawn	-2032.000000 918.750000 -99.437500	-0.044 0.000 0.000
ttt_playerspawn	-1793.750000 913.312500 -99.406250	-0.044 -172.617 0.132
ttt_playerspawn	-1783.500000 789.406250 -99.437500	0.044 -177.891 -0.176
ttt_playerspawn	57.593750 1068.531250 235.500000	0.044 0.176 -0.044
ttt_playerspawn	66.937500 641.843750 236.062500	0.132 0.044 1.802
ttt_playerspawn	-1957.031250 880.031250 40.500000	-0.044 0.000 0.044
ttt_playerspawn	-1953.625000 815.718750 40.500000	-0.044 0.000 0.044
ttt_playerspawn	-1367.718750 1073.625000 40.562500	-0.044 0.000 -0.044
ttt_playerspawn	-1002.562500 907.875000 40.531250	-0.044 0.000 0.044
ttt_playerspawn	-1052.500000 747.687500 -99.437500	-0.044 0.000 0.044
ttt_playerspawn	-1397.062500 741.687500 -99.531250	0.000 -3.735 0.044
ttt_playerspawn	-1402.625000 877.125000 -99.406250	0.176 0.000 0.264
item_ammo_357_ttt	-476.937500 864.250000 239.750000	0.439 0.044 0.044
item_ammo_357_ttt	10.593750 964.375000 -99.687500	0.439 0.088 0.044
item_ammo_357_ttt	21.843750 978.093750 -99.593750	0.439 0.044 0.044
item_ammo_357_ttt	182.625000 845.593750 112.312500	0.659 -0.088 -0.044
item_ammo_pistol_ttt	-2607.250000 785.031250 -221.500000	-0.132 -0.132 -0.088
item_ammo_pistol_ttt	-2601.125000 785.093750 -221.531250	1.538 0.308 0.000
item_ammo_pistol_ttt	-2593.625000 784.812500 -221.531250	1.274 -0.439 -0.132
item_ammo_pistol_ttt	-1906.156250 901.343750 -61.625000	-0.264 -0.044 -0.088
item_ammo_pistol_ttt	-1870.406250 925.000000 -61.000000	-0.176 0.264 -3.779
item_ammo_pistol_ttt	-1905.312500 789.906250 -61.562500	-0.088 -0.044 -0.044
item_ammo_pistol_ttt	-2114.125000 809.375000 -59.562500	-0.088 -0.044 -0.044
item_ammo_pistol_ttt	-594.406250 871.875000 239.781250	-0.132 -0.044 -0.044
item_ammo_pistol_ttt	-1198.781250 846.875000 -72.281250	0.000 0.044 0.000
item_ammo_pistol_ttt	-580.468750 871.281250 239.843750	-0.044 -0.044 -0.044
item_ammo_pistol_ttt	-1658.593750 1170.031250 81.343750	-0.132 -0.044 -0.044
item_ammo_pistol_ttt	-1976.343750 668.000000 86.062500	-89.385 -162.026 158.687
item_ammo_pistol_ttt	-1189.875000 899.562500 73.343750	-0.132 -0.044 -0.044
item_ammo_pistol_ttt	-1180.750000 898.843750 73.375000	-0.088 -0.044 -0.044
item_ammo_pistol_ttt	-1046.500000 1083.343750 83.343750	-0.132 -0.044 -0.044
item_ammo_pistol_ttt	-886.125000 1087.562500 91.375000	-0.088 -0.044 -0.044
weapon_zm_molotov	-1627.093750 920.250000 -78.718750	-1.758 -1.450 -0.967
weapon_zm_molotov	-1969.937500 987.281250 -239.812500	-0.615 -1.714 -0.923
weapon_zm_molotov	-882.656250 1123.750000 91.187500	-0.791 -1.494 -0.439
weapon_zm_molotov	-882.156250 1116.968750 91.156250	-2.285 -1.362 -1.230
weapon_zm_molotov	-888.906250 1123.218750 91.156250	-2.373 -1.318 -1.318
weapon_zm_molotov	-890.093750 1116.437500 91.156250	-1.626 -1.450 -0.879
weapon_zm_molotov	-1033.687500 1063.375000 83.125000	-2.813 -1.187 -1.538
weapon_zm_molotov	977.343750 691.937500 -115.343750	26.807 81.167 110.127
weapon_zm_molotov	-2090.250000 905.250000 -59.875000	-1.055 -1.494 -1.582
weapon_ttt_confgrenade	140.593750 972.437500 -51.875000	-35.947 -57.524 -90.308
item_ammo_revolver_ttt	-2095.937500 725.562500 -59.562500	-0.176 -0.967 -0.176
item_ammo_revolver_ttt	-2110.125000 718.625000 -59.593750	0.483 0.044 0.000
item_ammo_revolver_ttt	-1221.281250 814.593750 -72.343750	0.439 -0.044 -0.044
item_ammo_revolver_ttt	-1215.062500 807.375000 -72.343750	1.099 -0.527 0.044
item_ammo_revolver_ttt	-1870.531250 803.468750 -61.593750	0.967 -7.646 0.352
item_ammo_revolver_ttt	-1518.062500 1030.343750 -31.593750	-0.352 0.615 0.000
item_ammo_revolver_ttt	-2020.468750 999.625000 -239.625000	0.439 0.044 0.044
item_ammo_revolver_ttt	-271.812500 1071.812500 225.875000	10.635 25.532 15.996
weapon_zm_shotgun	-2588.125000 944.750000 -220.812500	-0.483 -9.932 -84.814
weapon_zm_shotgun	-1869.750000 847.406250 -60.968750	-0.308 -9.229 -83.232
weapon_zm_sledge	-2045.687500 1059.468750 -199.406250	19.160 -7.998 2.900
weapon_zm_sledge	-71.531250 888.906250 -61.968750	-6.548 15.864 88.418
weapon_zm_revolver	-2100.187500 712.531250 -59.000000	1.890 -20.610 -85.957
weapon_zm_revolver	-869.125000 856.687500 -60.718750	2.197 -18.369 -83.848
weapon_zm_revolver	-1866.093750 794.156250 -61.125000	3.340 -10.283 -83.452
weapon_zm_revolver	-1507.843750 1033.437500 -31.281250	30.059 3.779 -8.789
weapon_zm_revolver	-2022.187500 981.437500 -239.000000	1.978 -20.566 -85.869
weapon_zm_revolver	-285.468750 1080.906250 231.843750	12.744 20.918 99.360
weapon_zm_revolver	-742.562500 908.781250 97.906250	2.637 36.738 83.364
weapon_zm_revolver	173.625000 674.656250 98.968750	1.934 -23.159 -86.177
weapon_ttt_glock	-1190.906250 841.968750 -71.593750	-0.396 25.532 90.308
weapon_ttt_glock	-1186.375000 915.312500 74.093750	-0.747 25.620 91.450
weapon_ttt_glock	-883.687500 1107.125000 92.093750	-0.659 25.620 91.274
weapon_zm_pistol	-2406.062500 904.250000 -221.156250	0.000 -2.856 -87.935
weapon_zm_pistol	-2463.750000 745.062500 -221.125000	0.396 -36.211 -88.286
weapon_zm_pistol	-2499.593750 785.375000 -221.156250	0.439 -36.211 -88.154
weapon_zm_pistol	-1862.781250 920.000000 -61.187500	3.340 -34.937 -86.221
weapon_zm_pistol	-1901.843750 908.312500 -61.031250	0.352 -37.178 -89.385
weapon_zm_pistol	-1908.781250 799.562500 -61.093750	0.791 -37.266 -88.945
weapon_zm_pistol	-125.718750 1059.812500 -79.750000	0.659 -37.266 -88.550
weapon_zm_pistol	-1688.062500 1169.687500 81.906250	0.571 -37.222 -89.165
weapon_zm_pistol	-1970.343750 657.093750 83.718750	0.000 -37.266 -89.736
