# Trouble in Terrorist Town weapon/ammo placement overrides
# For map: de_haunts
# Exported by: valki
setting:	replacespawns 1
weapon_ttt_smokegrenade	-2128.076416 978.880066 -58.754410	-35.707 -3.096 -28.878
weapon_ttt_smokegrenade	-2228.390137 868.565186 -58.393829	17.107 12.430 -90.419
weapon_ttt_smokegrenade	-1963.537964 837.226807 -58.514030	18.705 39.332 -89.175
weapon_ttt_smokegrenade	-59.056770 497.141022 -99.953117	-52.796 36.076 -86.833
weapon_ttt_smokegrenade	-67.889259 763.240967 -100.568649	11.526 46.043 -49.524
weapon_ttt_smokegrenade	-80.628242 1349.180786 -111.422447	-1.480 -1.456 -1.507
weapon_ttt_smokegrenade	-87.924141 1143.506836 -126.305229	18.855 41.866 -90.599
weapon_ttt_smokegrenade	-849.400391 1336.739136 -87.836365	-1.415 -1.487 -1.440
weapon_ttt_smokegrenade	-714.857239 1333.686279 -87.823792	-1.147 -1.529 -1.167
weapon_ttt_smokegrenade	-402.977722 1450.548706 -87.833443	-1.353 -1.483 -1.377
weapon_ttt_smokegrenade	-525.795410 1447.931885 -87.863731	-1.999 -1.232 -2.037
weapon_ttt_smokegrenade	-1888.769165 1913.188232 -65.844826	-1.596 -1.414 -1.625
weapon_ttt_smokegrenade	-1979.665894 1897.864990 -65.814941	-0.958 -1.548 -0.974
weapon_ttt_smokegrenade	-2067.910645 1858.302124 -65.843727	-1.577 -1.414 -1.598
weapon_ttt_smokegrenade	-1114.179321 2336.678223 -122.603310	14.273 -15.372 -93.127
weapon_ttt_smokegrenade	-1116.299194 2226.439209 -106.582405	31.273 173.691 95.193
weapon_ttt_smokegrenade	-1443.631226 2263.173584 -123.948151	-60.619 -21.538 -89.468
ttt_random_weapon	-2652.528564 3909.187744 -10.785685	1.692 5.719 -93.101
ttt_random_weapon	-2888.406006 3907.526367 -10.778430	1.615 5.721 -93.260
ttt_random_weapon	-2696.071533 1393.533569 75.181076	1.187 6.781 -93.141
item_ammo_smg1_ttt	-1884.744873 1317.415527 24.534714	0.014 0.916 0.094
item_ammo_smg1_ttt	-1872.659546 1317.613037 24.526430	0.105 0.567 -0.087
item_ammo_smg1_ttt	-2777.477051 382.238159 52.520245	0.001 2.676 -0.295
item_ammo_smg1_ttt	-2790.271240 380.654297 52.550884	0.097 0.909 -0.038
item_ammo_smg1_ttt	-2122.025391 346.361145 -127.455315	0.045 -0.197 -0.120
item_ammo_smg1_ttt	-2134.468018 346.217407 -127.462379	0.199 0.263 0.118
item_ammo_smg1_ttt	-225.890717 1132.175781 -127.469597	-0.107 1.082 0.154
item_ammo_smg1_ttt	-238.180862 1131.341553 -127.451096	0.071 0.036 0.051
item_ammo_smg1_ttt	-3025.324707 2762.083252 -9.154047	-0.112 -0.569 -16.005
item_ammo_smg1_ttt	-3039.042725 2761.819336 -9.057498	0.029 3.761 -16.557
item_ammo_smg1_ttt	-923.472107 2293.715820 -95.448334	-0.120 -0.780 0.001
item_ammo_smg1_ttt	-924.341797 2293.686279 -81.630699	0.125 -1.209 -0.061
weapon_ttt_m16	-1424.589478 1180.733154 -126.965034	2.270 5.373 -84.940
weapon_ttt_m16	-1975.183960 1931.210327 -121.479935	5.963 8.263 93.083
weapon_ttt_m16	-2553.250732 2005.090210 0.851057	2.088 -5.963 83.967
weapon_ttt_m16	-2407.331299 1707.981689 -108.852577	2.217 -5.767 83.902
weapon_ttt_m16	-3177.455078 2204.550537 -143.132523	2.077 -5.686 83.867
weapon_ttt_m16	-922.670654 2105.005127 -95.114662	2.761 -9.554 -82.887
item_box_buckshot_ttt	-567.842407 973.540771 -127.545410	0.529 0.759 0.041
item_box_buckshot_ttt	-550.792542 963.881958 -127.630264	-0.802 -0.007 -0.574
item_box_buckshot_ttt	-1226.850830 2922.454102 -95.514694	0.030 -2.985 0.216
item_box_buckshot_ttt	-1219.447388 2922.099365 -95.537682	1.173 -2.605 -0.264
item_box_buckshot_ttt	-1720.903931 997.703796 -123.615036	-1.000 -0.010 0.896
item_box_buckshot_ttt	-1720.402222 1010.968079 -123.649582	0.828 0.002 -0.663
item_box_buckshot_ttt	-2467.667725 794.560120 92.705902	-0.218 0.000 -0.058
item_box_buckshot_ttt	-2458.061279 794.585083 92.773193	-0.236 -0.003 -0.118
item_box_buckshot_ttt	-1379.270142 1584.278320 -116.298859	-0.493 -1.169 -6.546
item_box_buckshot_ttt	-1403.762939 1586.463379 -112.434975	-2.551 2.941 -95.059
item_box_buckshot_ttt	71.779228 438.841156 52.462605	1.220 -0.065 -0.303
item_box_buckshot_ttt	49.056667 398.182678 52.419418	0.354 -0.125 -0.008
ttt_random_ammo	-2808.182617 384.188660 -115.614792	0.261 -0.001 -0.262
ttt_random_ammo	-2547.562744 378.205475 -67.648849	0.051 0.000 -0.011
ttt_random_ammo	-2493.576416 892.389587 -94.201836	0.041 -0.000 0.023
ttt_random_ammo	-2282.146240 893.064209 -94.239738	-0.047 -0.000 -0.038
ttt_random_ammo	-1966.752686 779.676270 -127.513100	-0.953 -0.112 0.747
ttt_random_ammo	-1748.930542 281.658966 -87.780060	-0.064 0.055 -1.067
ttt_random_ammo	-1867.908325 6.895102 -127.561386	-0.570 -0.014 1.760
ttt_random_ammo	-1788.602783 220.831528 -127.600105	-0.554 -0.004 0.620
ttt_random_ammo	-2001.992432 421.929321 -51.761147	-0.721 -0.023 0.857
ttt_random_ammo	-1983.867310 409.146210 -51.882092	0.044 0.000 -0.029
ttt_random_ammo	-2370.660645 713.808655 92.573868	-0.335 0.046 -0.506
ttt_random_ammo	-2370.664551 657.576904 92.575668	-0.291 0.030 -0.466
ttt_random_ammo	-2370.639893 609.951355 92.557983	-0.596 0.023 -0.911
ttt_random_ammo	-3069.242920 1203.795044 16.825821	1.264 -0.023 -1.359
ttt_random_ammo	-3293.454102 768.456604 16.845654	2.032 0.010 1.405
ttt_random_ammo	-2702.879639 2764.577148 -11.589033	1.752 0.030 2.117
ttt_random_ammo	-3216.128418 2901.303711 -11.610350	-0.272 -0.001 0.274
ttt_random_ammo	-3075.604980 3797.006592 -11.644601	0.054 -0.000 0.004
ttt_random_ammo	-3071.383789 3900.670898 -11.651023	0.049 0.000 -0.014
ttt_random_ammo	-3075.314453 4012.697021 -11.625527	0.116 0.000 0.080
ttt_random_ammo	-2986.758789 3805.754150 -11.646709	0.052 0.000 -0.008
ttt_random_ammo	-2984.020752 3888.111084 -11.669686	0.045 -0.000 0.029
ttt_random_ammo	-2993.117432 3985.866455 -11.642539	0.057 0.000 0.000
ttt_random_ammo	-2465.991699 4009.539551 -11.667247	0.045 0.000 -0.027
ttt_random_ammo	-2456.470947 3801.989014 -11.564510	1.104 0.028 1.319
ttt_random_ammo	-2570.485840 4000.013184 -11.662428	0.045 0.000 -0.024
ttt_random_ammo	-2574.056152 3924.334229 -11.651023	0.049 0.000 -0.014
ttt_random_ammo	-2556.514648 3820.835693 -11.651011	0.049 -0.000 0.014
ttt_random_ammo	-2759.113770 1682.798584 -93.608551	0.509 0.004 0.567
ttt_random_ammo	-2822.522949 1665.985718 -93.655472	0.047 0.000 -0.019
ttt_random_ammo	-3162.651611 1581.246704 0.413295	1.047 1.080 0.621
ttt_random_ammo	-2758.181152 1401.129150 24.447338	-1.537 -0.037 1.861
ttt_random_ammo	-2560.282471 1383.454346 24.358421	-0.059 -0.000 0.001
ttt_random_ammo	-2964.483887 1234.867432 24.397627	-0.468 -0.003 0.515
ttt_random_ammo	131.868057 307.115784 52.377831	0.151 0.001 0.122
ttt_random_ammo	180.459167 354.920013 52.461090	-1.182 -0.030 1.437
weapon_zm_rifle	-2443.114502 3912.675781 -12.899404	3.288 10.845 64.615
weapon_zm_rifle	-3016.856445 1699.946655 -81.973213	0.543 -6.917 -88.797
weapon_zm_rifle	-3522.174805 1237.379395 3.198239	3.264 11.357 65.321
weapon_zm_rifle	-2456.300537 2614.150879 39.002396	3.267 5.171 64.931
weapon_zm_rifle	-1366.669189 1673.707642 -122.818443	3.320 12.490 65.221
weapon_zm_mac10	-1877.490845 1318.250854 39.134521	0.058 -53.612 -89.142
weapon_zm_mac10	-2807.655518 386.356537 53.214684	-0.020 -50.736 -87.542
weapon_zm_mac10	-2126.413330 346.540894 -112.902229	-0.125 -56.975 -87.745
weapon_zm_mac10	-231.553375 1126.428955 -111.040161	21.010 7.067 1.565
weapon_zm_mac10	-3029.854736 2766.786865 4.613036	-13.822 -58.984 -95.584
weapon_zm_mac10	-932.235046 2292.239258 -94.760887	0.049 53.354 -88.378
ttt_playerspawn	485.812378 1020.162842 -120.434525	0.000 0.000 0.000
ttt_playerspawn	687.622009 1028.674438 -120.434525	0.000 0.000 0.000
ttt_playerspawn	922.532898 839.221741 -120.434525	0.000 0.000 0.000
ttt_playerspawn	915.726624 491.996521 -120.434525	0.000 0.000 0.000
ttt_playerspawn	1100.571167 366.106476 -120.434525	0.000 0.000 0.000
ttt_playerspawn	1298.486816 334.281616 -120.434525	0.000 0.000 0.000
ttt_playerspawn	1402.583618 165.018906 -120.434525	0.000 0.000 0.000
ttt_playerspawn	972.846497 206.711014 -120.434525	0.000 0.000 0.000
ttt_playerspawn	1323.724854 -262.668365 -120.434525	0.000 0.000 0.000
ttt_playerspawn	1094.958252 -281.267975 -120.434525	0.000 0.000 0.000
ttt_playerspawn	864.141113 -289.634460 -120.434525	0.000 0.000 0.000
ttt_playerspawn	601.251587 -373.338531 -120.434525	0.000 0.000 0.000
ttt_playerspawn	395.261169 -447.697296 -120.434525	0.000 0.000 0.000
ttt_playerspawn	123.946236 -494.824310 -120.434525	0.000 0.000 0.000
ttt_playerspawn	-52.052906 -345.244324 -120.434525	0.000 0.000 0.000
ttt_playerspawn	-127.053513 -134.514130 -120.434525	0.000 0.000 0.000
item_ammo_357_ttt	-2425.624023 3916.333252 -11.552796	0.475 0.055 0.008
item_ammo_357_ttt	-2432.572510 3916.084229 -11.655052	0.465 0.064 0.045
item_ammo_357_ttt	-3011.160889 1697.041870 -82.656082	0.444 0.051 0.033
item_ammo_357_ttt	-3006.405029 1686.062622 -82.675644	0.436 0.053 0.040
item_ammo_357_ttt	-3510.678711 1242.948486 4.343723	0.780 -0.043 0.015
item_ammo_357_ttt	-3518.529785 1242.166626 4.319364	0.447 0.072 0.061
item_ammo_357_ttt	-2451.354736 2617.276123 40.181519	0.426 0.063 0.045
item_ammo_357_ttt	-2459.470947 2616.928711 40.183784	0.675 -0.075 -0.053
item_ammo_357_ttt	-1367.579834 1674.791016 -121.569878	1.056 -0.433 -0.975
item_ammo_357_ttt	-1375.158203 1674.262329 -121.554695	0.916 -0.431 -0.663
item_ammo_pistol_ttt	502.282196 1028.391357 -127.521736	0.264 0.698 0.048
item_ammo_pistol_ttt	508.373871 1030.248901 -127.524872	0.287 0.192 -0.017
item_ammo_pistol_ttt	715.649963 1030.458008 -127.543083	0.151 -0.041 0.165
item_ammo_pistol_ttt	724.091492 1032.011475 -127.570786	1.627 0.049 -0.093
item_ammo_pistol_ttt	907.224365 837.791565 -127.657028	-0.136 -0.019 -0.041
item_ammo_pistol_ttt	897.713989 837.659973 -127.627327	-0.110 -0.019 -0.033
item_ammo_pistol_ttt	903.547363 493.279877 -127.677040	-0.154 -0.018 -0.047
item_ammo_pistol_ttt	894.740479 489.685364 -127.657021	-0.136 -0.019 -0.041
item_ammo_pistol_ttt	1116.011719 350.540863 -127.654686	-0.134 -0.019 -0.041
item_ammo_pistol_ttt	1126.395874 352.180908 -127.574448	-0.064 -0.020 -0.019
item_ammo_pistol_ttt	1316.144165 330.073608 -127.553665	0.398 -0.282 0.310
item_ammo_pistol_ttt	1327.319824 330.347382 -127.635185	-0.117 -0.019 -0.035
item_ammo_pistol_ttt	1423.420044 171.588043 -127.657021	-0.136 -0.019 -0.041
item_ammo_pistol_ttt	1432.711914 175.245407 -127.627327	-0.110 -0.019 -0.033
item_ammo_pistol_ttt	1342.195190 -264.478729 -127.657028	-0.136 -0.019 -0.041
item_ammo_pistol_ttt	1351.913574 -266.466064 -127.618156	-0.102 -0.020 -0.031
item_ammo_pistol_ttt	1089.676514 -262.985718 -127.657028	-0.136 -0.019 -0.041
item_ammo_pistol_ttt	1098.098511 -263.969360 -127.595871	-0.083 -0.020 -0.025
item_ammo_pistol_ttt	874.901062 -304.176483 -127.524559	-0.048 -0.011 -0.126
item_ammo_pistol_ttt	880.980103 -305.118744 -127.546852	-0.272 -0.048 -0.377
item_ammo_pistol_ttt	587.674072 -352.824677 -127.548012	0.753 -0.132 0.198
item_ammo_pistol_ttt	593.745972 -352.777527 -127.561714	0.497 -0.082 0.266
item_ammo_pistol_ttt	406.047272 -458.520569 -127.512787	-0.211 -7.982 -0.028
item_ammo_pistol_ttt	417.708008 -457.084656 -124.719513	89.779 176.366 -179.996
item_ammo_pistol_ttt	134.856674 -508.604187 -127.547867	-0.409 1.015 -0.138
item_ammo_pistol_ttt	141.280090 -507.469971 -127.564980	-1.246 2.795 0.011
item_ammo_pistol_ttt	-32.861267 -334.069885 -127.671806	0.149 0.018 -0.045
item_ammo_pistol_ttt	-26.290972 -333.134735 -127.659393	-0.138 -0.019 -0.042
item_ammo_pistol_ttt	-115.707130 -128.550613 -127.593918	2.986 -6.662 0.048
item_ammo_pistol_ttt	-107.985077 -119.534081 -127.501312	-0.000 1.085 -0.000
item_ammo_pistol_ttt	985.043274 188.350922 -127.541077	0.400 -1.106 0.129
item_ammo_pistol_ttt	991.089844 184.640182 -127.565697	0.152 -0.705 -0.370
item_ammo_pistol_ttt	-209.536819 816.920471 -127.614029	-0.300 0.044 -0.144
item_ammo_pistol_ttt	-202.852951 817.504700 -127.616989	0.056 0.001 0.024
item_ammo_pistol_ttt	-196.459534 817.407776 -127.660088	0.075 0.001 0.035
item_ammo_pistol_ttt	-2430.114014 916.375122 -111.555099	0.548 -0.614 0.175
item_ammo_pistol_ttt	-2437.335449 922.298523 -111.627327	-0.110 -0.019 -0.033
item_ammo_pistol_ttt	-2517.302979 2548.156250 21.249018	89.465 172.785 178.327
item_ammo_pistol_ttt	-2503.630371 2575.625244 11.508904	-1.249 -46.376 179.998
item_ammo_pistol_ttt	-78.987999 1461.376709 -127.573402	-0.325 0.350 -0.545
item_ammo_pistol_ttt	-85.174606 1461.574097 -127.572037	-0.688 0.164 -0.661
item_ammo_pistol_ttt	-2778.003174 4089.837891 -11.550679	0.171 0.152 0.255
item_ammo_pistol_ttt	-2758.732422 4090.469727 -11.679714	-0.156 -0.017 -0.047
item_ammo_pistol_ttt	-1434.747437 1169.272583 -127.510872	-0.003 -0.220 -0.042
item_ammo_pistol_ttt	-1428.593750 1169.244995 -127.516098	-0.179 -0.099 -0.146
item_ammo_pistol_ttt	-1953.452637 1941.047607 -122.463257	12.202 0.122 5.003
item_ammo_pistol_ttt	-1964.930176 1941.350708 -121.007423	11.181 0.121 11.104
item_ammo_pistol_ttt	-2574.243896 2017.907959 0.435794	1.071 0.190 0.341
item_ammo_pistol_ttt	-2568.187256 2019.128296 0.457580	-0.186 -0.032 -0.328
item_ammo_pistol_ttt	-2355.254395 1771.087280 -127.579216	-0.385 0.117 -0.478
item_ammo_pistol_ttt	-2361.453125 1769.119995 -127.531685	-1.294 0.163 -0.544
item_ammo_pistol_ttt	-3150.060791 2185.142334 -143.635178	-0.117 -0.019 -0.035
item_ammo_pistol_ttt	-3166.792480 2179.928467 -143.633179	-0.115 -0.019 -0.035
item_ammo_pistol_ttt	-912.329895 2117.208984 -93.846107	8.496 -0.724 -6.246
item_ammo_pistol_ttt	-916.788818 2118.343506 -91.044029	-77.142 64.565 -62.077
weapon_zm_molotov	-2753.676514 4104.429688 19.165781	-0.728 -1.809 -0.853
weapon_zm_molotov	-3172.756836 2202.835449 29.161894	-1.142 -1.653 -1.335
weapon_zm_molotov	-2997.828369 1655.196289 -123.822205	-1.113 -1.532 -1.132
weapon_zm_molotov	-3005.744873 1669.027344 -123.826271	-1.200 -1.521 -1.220
weapon_zm_molotov	-3017.315674 1687.526733 -123.832779	-1.438 -1.499 -1.839
weapon_zm_molotov	-2737.048096 1403.140259 74.185806	-1.345 -1.123 -1.079
weapon_zm_molotov	-2625.447998 1400.208252 76.110451	25.611 -116.892 91.341
weapon_zm_molotov	-3457.568359 1230.228394 50.182384	-1.249 0.425 -1.202
weapon_zm_molotov	-3057.006836 1026.692017 1.374104	41.804 -137.205 -66.107
weapon_zm_molotov	-3000.553223 587.621216 -26.241735	-50.301 -115.901 -86.437
weapon_zm_molotov	-2411.959229 936.494385 -41.025394	-0.792 -1.677 -1.208
weapon_zm_molotov	-1963.518677 809.037781 -58.492989	17.499 53.279 -89.308
weapon_zm_molotov	-2099.716797 976.175476 -57.882347	24.819 -116.597 90.500
weapon_zm_molotov	-2222.637939 842.293091 -57.949001	-28.290 -146.767 87.677
weapon_zm_molotov	-1931.113770 1907.075439 -65.855652	-1.827 -1.288 -1.861
weapon_zm_molotov	-2020.711670 1881.907715 -65.834404	-1.373 -1.484 -1.397
weapon_zm_molotov	-1228.272095 2014.761597 -125.273979	-18.200 0.483 -16.459
weapon_zm_molotov	-943.383423 2298.718018 -93.690742	-48.784 -111.510 89.761
weapon_zm_molotov	-1924.467407 2276.219482 -17.450226	26.870 119.570 106.011
weapon_zm_molotov	-1922.338135 2287.302246 -18.507254	27.628 81.472 103.307
weapon_zm_molotov	-1922.769287 2299.436279 -18.259485	25.505 82.299 102.526
weapon_zm_molotov	-1928.148438 2360.194336 -12.405928	0.349 0.937 5.229
weapon_zm_molotov	-2556.125000 2376.198486 39.393196	18.364 43.040 -89.218
weapon_ttt_confgrenade	1089.842651 359.204559 -125.810768	13.363 -31.420 -91.290
weapon_ttt_confgrenade	956.186951 202.533401 -125.889420	-35.974 -49.994 -90.354
weapon_ttt_confgrenade	1308.991699 317.328156 -126.026726	8.342 -26.627 -86.764
weapon_ttt_confgrenade	1389.669800 159.032242 -125.862999	-36.377 -49.612 -90.977
weapon_ttt_confgrenade	1313.973145 -249.158478 -126.018280	-38.278 -61.634 -88.413
weapon_ttt_confgrenade	1105.245483 -277.807373 -125.660744	13.130 -60.690 -93.945
weapon_ttt_confgrenade	854.875061 -279.289978 -125.869965	-36.271 -49.711 -90.811
weapon_ttt_confgrenade	595.621216 -365.191223 -125.464935	-35.946 159.035 -101.927
weapon_ttt_confgrenade	379.967926 -433.511658 -125.847641	-36.612 -49.380 -91.344
weapon_ttt_confgrenade	104.442604 -513.145325 -125.847412	-36.616 -49.379 -91.350
weapon_ttt_confgrenade	-55.756538 -356.557007 -125.621407	47.593 -36.659 -89.798
weapon_ttt_confgrenade	-152.773712 -124.781502 -125.816170	-37.093 -48.888 -92.110
weapon_ttt_confgrenade	992.137451 201.075592 -125.827469	14.265 -43.810 -90.815
weapon_ttt_confgrenade	924.694275 480.892426 -125.857262	-36.465 -49.527 -91.113
weapon_ttt_confgrenade	915.333740 824.291992 -125.823456	-36.982 -49.005 -91.931
weapon_ttt_confgrenade	700.717651 1028.155762 -125.847801	15.524 -27.292 -90.209
weapon_ttt_confgrenade	504.592041 1014.407959 -125.886528	13.067 -32.085 -90.129
item_ammo_revolver_ttt	-212.832428 439.403107 -127.651772	0.454 0.064 0.048
item_ammo_revolver_ttt	-206.649048 439.063385 -127.632156	0.657 0.145 0.085
item_ammo_revolver_ttt	-713.577332 408.367920 -101.117096	0.210 -0.915 -0.093
item_ammo_revolver_ttt	-2070.645020 247.534454 -127.529739	0.478 0.714 0.000
item_ammo_revolver_ttt	-2081.649414 254.592224 -127.676094	0.449 0.069 0.058
item_ammo_revolver_ttt	-3000.073486 607.271545 -11.640451	0.763 0.130 -0.047
item_ammo_revolver_ttt	-2993.879150 606.774048 -11.572939	1.106 0.197 -1.054
item_ammo_revolver_ttt	-2998.734863 595.969421 -19.680479	-0.038 -0.790 0.064
item_ammo_revolver_ttt	-1763.227539 1130.512939 24.448490	-0.752 0.156 0.570
item_ammo_revolver_ttt	-1763.331787 1108.346069 24.447918	-0.727 0.418 0.545
item_ammo_revolver_ttt	-3179.534424 2249.812500 0.364184	0.445 -0.051 -0.018
item_ammo_revolver_ttt	-3178.563232 2239.512207 0.334610	0.452 0.066 0.053
item_ammo_revolver_ttt	33.278290 395.378265 52.311707	0.591 -0.012 0.102
item_ammo_revolver_ttt	86.777512 449.442261 52.319469	0.449 0.075 0.059
weapon_zm_shotgun	-584.131409 956.071960 -129.900848	9.391 -3.120 -17.990
weapon_zm_shotgun	-1210.629517 2893.587891 -95.095360	0.037 -6.278 -82.326
weapon_zm_shotgun	-1696.896973 999.953430 -123.004944	-0.365 -12.490 -83.180
weapon_zm_shotgun	-2430.709229 798.255981 90.117638	9.411 -0.333 -0.355
weapon_zm_shotgun	-1407.094849 1573.069214 -114.926636	-5.756 4.620 -93.122
weapon_zm_shotgun	50.924835 405.243347 50.472851	8.437 -3.178 -32.105
weapon_zm_sledge	-2531.093750 1576.913086 -90.875137	12.270 0.417 2.706
weapon_zm_sledge	-3562.173584 1301.997314 1.809222	18.701 -0.378 2.995
weapon_zm_sledge	-2162.167725 866.170105 -100.533173	-28.171 25.440 105.475
weapon_zm_sledge	-1396.966431 558.144531 -90.358078	19.777 -4.029 2.675
weapon_zm_sledge	-2133.024902 2691.072998 21.786139	12.120 0.417 2.699
weapon_zm_sledge	-1040.219116 2242.858643 -70.191551	18.634 -0.126 2.992
weapon_zm_revolver	-216.586639 424.872101 -96.032143	1.889 -20.613 -85.989
weapon_zm_revolver	-733.505798 401.318268 -100.570313	3.245 -48.595 -85.599
weapon_zm_revolver	-2056.886475 259.045013 -91.924110	1.932 -20.588 -85.914
weapon_zm_revolver	-2993.996582 619.678589 -3.114927	16.584 -16.892 -58.158
weapon_zm_revolver	-1772.169922 1116.980225 24.833296	2.481 -40.658 -83.963
weapon_zm_revolver	-3173.125244 2159.825195 19.851738	-1.163 -28.122 -86.056
weapon_zm_revolver	57.921974 419.971497 52.970669	2.048 -20.549 -85.712
weapon_ttt_glock	-216.727173 823.412842 -95.892731	-0.680 25.653 91.234
weapon_ttt_glock	-2397.308105 888.438660 -91.404030	-0.556 25.663 90.998
weapon_ttt_glock	-2528.358398 2518.936035 53.108650	-0.598 25.661 91.077
weapon_ttt_glock	-84.374794 1439.847900 -110.474319	-0.574 25.860 91.075
weapon_ttt_glock	-2776.839844 4103.823242 20.108898	-0.788 25.639 91.440
weapon_zm_pistol	491.680084 1012.357483 -126.982239	0.183 32.540 89.224
weapon_zm_pistol	687.589417 1021.149414 -127.105721	0.333 34.272 88.924
weapon_zm_pistol	929.587463 846.552612 -127.106239	0.420 35.010 88.724
weapon_zm_pistol	934.250854 484.404388 -127.071579	0.621 -37.181 -89.378
weapon_zm_pistol	1089.417969 371.722717 -127.134445	0.323 -30.447 -88.497
weapon_zm_pistol	1280.431641 332.711731 -127.090599	0.828 -37.206 -89.237
weapon_zm_pistol	1389.844116 172.093323 -127.106323	0.236 35.648 88.974
weapon_zm_pistol	1324.124146 -251.982498 -126.890610	0.027 27.365 90.907
weapon_zm_pistol	1107.249634 -285.441559 -126.985550	0.907 36.559 89.377
weapon_zm_pistol	863.248535 -275.803711 -127.047104	0.355 -37.141 -89.558
weapon_zm_pistol	598.226074 -389.469177 -127.122299	1.172 -37.238 -89.004
weapon_zm_pistol	395.112762 -436.648895 -127.082947	0.745 -37.199 -89.294
weapon_zm_pistol	127.399254 -486.459045 -127.103035	0.963 -37.218 -89.146
weapon_zm_pistol	-39.842453 -352.745911 -127.025124	0.615 37.626 89.343
weapon_zm_pistol	-115.523674 -138.034821 -127.119911	-0.314 30.283 87.779
weapon_zm_pistol	985.137878 210.479828 -127.104652	0.276 33.176 89.161
weapon_zm_pistol	143.166656 336.378448 52.985542	0.000 -34.961 -89.799
