# Trouble in Terrorist Town weapon/ammo placement overrides
# For map: de_nuke
# Exported by: Ajunk
setting:	replacespawns 1
weapon_zm_pistol	1304.4645 -414.1577 -639.6404	0.452 36.661 89.096
weapon_zm_pistol	1093.5569 -644.5424 -639.6508	0.226 36.848 89.029
weapon_zm_pistol	1135.1307 -1561.3904 -639.7162	-0.133 36.017 88.205
weapon_zm_pistol	1430.2927 -2158.2571 -639.7255	-0.145 36.019 88.049
weapon_zm_pistol	454.3192 -951.4391 -279.4344	7.738 -42.699 -95.510
weapon_zm_pistol	404.3738 -1116.3955 -383.7255	-0.145 36.019 88.049
weapon_zm_pistol	-242.4719 -486.9757 -389.7162	-0.133 36.017 88.205
weapon_zm_pistol	-383.9997 -1097.7351 -415.7321	-0.154 36.020 87.937
weapon_zm_pistol	159.1513 -2038.2328 -415.6153	0.440 36.404 89.621
weapon_zm_pistol	2007.1298 -1920.0634 -364.3068	0.372 36.640 89.230
weapon_zm_pistol	1783.1187 -790.7198 -303.8601	0.015 35.145 88.250
weapon_zm_pistol	496.3292 157.4724 -415.7223	-0.141 36.020 88.102
weapon_zm_pistol	1291.2402 -605.0217 -415.6487	-0.041 35.943 89.335
weapon_zm_pistol	1231.7483 -728.6506 -415.7255	-0.145 36.019 88.049
weapon_zm_pistol	2189.9351 -2426.4910 -638.4722	0.469 1.647 -89.488
item_ammo_pistol_ttt	135.5890 -873.0757 -95.5485	-0.041 -0.020 -0.013
item_ammo_pistol_ttt	122.3992 -847.0700 -95.6547	-0.134 -0.019 -0.041
item_ammo_pistol_ttt	110.5399 -875.3221 -95.6435	-0.124 -0.019 -0.038
item_ammo_pistol_ttt	362.3110 -1049.7679 -259.1366	78.570 -179.985 178.598
item_ammo_pistol_ttt	392.5446 -1039.5564 -265.1869	78.406 179.695 179.482
item_ammo_pistol_ttt	381.9915 -1002.9474 -263.0700	78.556 -179.983 178.600
item_ammo_pistol_ttt	349.7317 -1109.6013 -256.6641	78.790 179.987 178.576
item_ammo_pistol_ttt	388.6071 -1146.3212 -264.4371	78.780 179.989 178.578
item_ammo_pistol_ttt	1053.8796 -743.1386 -415.5756	-0.065 -0.020 -0.020
item_ammo_pistol_ttt	1056.3595 -724.6090 -415.5600	-0.908 0.103 -0.594
item_ammo_pistol_ttt	1076.9335 -732.9775 -415.6147	-0.099 -0.020 -0.030
item_ammo_pistol_ttt	1081.5847 -709.7131 -415.6718	-0.149 -0.018 -0.045
item_ammo_pistol_ttt	1094.9432 -718.5463 -415.5959	-0.083 -0.020 -0.025
item_ammo_pistol_ttt	-2718.3013 -842.8472 -417.8672	0.802 -0.044 -0.033
item_ammo_pistol_ttt	1268.3186 -414.8057 -639.6182	-0.102 -0.020 -0.031
item_ammo_pistol_ttt	1421.6827 -2129.6978 -639.6771	-0.154 -0.018 -0.046
item_ammo_pistol_ttt	1459.2615 -2190.1021 -639.6618	-0.140 -0.019 -0.042
item_ammo_pistol_ttt	1483.8800 -2128.9631 -639.6236	-0.107 -0.019 -0.032
item_ammo_pistol_ttt	1497.7981 -2182.2034 -639.5576	0.152 0.077 -0.285
item_ammo_pistol_ttt	1305.5320 -375.3723 -639.6824	-0.158 -0.017 -0.048
item_ammo_pistol_ttt	1299.3040 -450.0768 -639.6373	-0.119 -0.019 -0.036
item_ammo_pistol_ttt	1783.1970 -806.3752 -303.7680	0.021 0.044 -0.006
item_ammo_pistol_ttt	1766.0005 -790.7784 -303.7794	0.023 0.044 -0.007
item_ammo_pistol_ttt	1831.3740 -789.5919 -287.2815	-0.003 -0.030 0.006
item_ammo_pistol_ttt	2016.6555 -1949.1161 -364.3115	0.118 0.021 -0.026
item_ammo_pistol_ttt	521.0238 175.1847 -415.6547	-0.134 -0.019 -0.041
item_ammo_pistol_ttt	453.6963 170.8791 -415.6113	-0.096 -0.020 -0.029
item_ammo_pistol_ttt	463.9675 125.8360 -415.6618	-0.140 -0.019 -0.043
item_ammo_pistol_ttt	525.9805 142.3480 -415.6158	0.504 -14.887 -0.007
item_ammo_pistol_ttt	2187.0420 -2390.6770 -639.5407	-0.034 -0.020 -0.010
item_ammo_pistol_ttt	2242.7341 -2386.8828 -639.6693	-0.147 -0.018 -0.044
item_ammo_pistol_ttt	2226.8962 -2394.0735 -639.6097	-0.095 -0.020 -0.029
item_ammo_pistol_ttt	2214.2944 -2385.7893 -639.5134	0.153 -0.479 0.029
item_ammo_pistol_ttt	1081.3763 -538.3301 -193.7085	0.887 0.256 5.883
item_ammo_pistol_ttt	1116.9575 -537.0644 -193.5973	1.117 0.280 5.890
item_ammo_pistol_ttt	1145.0116 -535.8499 -193.4563	0.915 0.259 5.884
item_ammo_pistol_ttt	1170.7969 -530.3329 -192.9097	1.152 0.284 5.891
item_ammo_pistol_ttt	1200.7393 -529.6814 -192.8308	1.004 0.268 5.887
item_ammo_pistol_ttt	1220.0530 -526.3091 -192.4713	0.834 0.250 5.881
item_ammo_pistol_ttt	1243.7000 -526.3077 -192.4927	1.101 0.278 5.890
weapon_zm_revolver	-2727.2197 -663.7889 -415.3859	2.762 -21.296 -83.360
weapon_zm_revolver	639.9932 -1430.3529 -598.0569	2.699 -20.129 -83.915
weapon_zm_revolver	584.6472 -1062.5400 -365.2217	2.472 -20.580 -84.322
weapon_zm_revolver	411.8042 -825.0159 -382.0848	2.442 -20.370 -83.801
weapon_zm_revolver	-409.8405 -235.2800 -414.0904	2.447 -20.361 -83.676
weapon_zm_revolver	-249.3264 -519.4202 -170.0539	2.668 -20.139 -84.036
weapon_zm_revolver	-2768.6541 -808.8733 -416.7875	1.163 -20.645 -82.894
weapon_zm_revolver	115.3275 -1979.1146 -414.0933	2.450 -20.358 -83.608
weapon_zm_revolver	1569.3407 -2124.8557 -361.9134	2.206 -18.922 -84.142
weapon_zm_revolver	1752.7632 -736.2064 -302.2382	2.517 -20.551 -83.901
weapon_zm_revolver	561.7090 262.1998 -414.0986	2.455 -20.349 -83.490
weapon_zm_revolver	317.6369 -1486.3582 -126.0933	2.450 -20.358 -83.608
weapon_zm_revolver	191.4287 -1114.6309 -286.0934	2.450 -20.358 -83.608
weapon_zm_revolver	1386.0475 -282.7283 -167.2426	-0.631 30.266 89.344
weapon_zm_revolver	1414.8689 -2334.9731 -414.0493	2.409 -20.423 -84.604
ttt_random_weapon	-1146.8693 -1219.2859 -344.0803	1.616 3.085 -93.190
ttt_random_weapon	-1173.0259 -1196.3992 -355.8882	1.812 4.266 -92.742
ttt_random_weapon	-1179.3199 -1248.0505 -362.6696	1.571 2.269 -93.292
ttt_random_weapon	3416.8608 -908.7122 -326.2240	1.857 4.928 -92.638
ttt_random_weapon	3285.1973 -933.3589 -322.4534	1.991 3.830 -92.331
ttt_random_weapon	3300.4607 -786.3825 -322.7926	1.981 1.888 -92.354
ttt_random_weapon	3391.2249 -746.8090 -325.6270	1.646 5.801 -93.121
ttt_random_weapon	3297.6892 -625.0615 -311.5996	1.916 3.169 -92.503
item_ammo_smg1_ttt	231.5419 -955.4722 -287.5111	-0.122 0.018 -0.109
item_ammo_smg1_ttt	196.4332 -956.1420 -287.5762	-0.020 -0.032 0.015
item_ammo_smg1_ttt	213.1403 -897.1205 -287.6109	0.098 -0.005 0.054
item_ammo_smg1_ttt	2403.9395 -1762.0901 -415.6136	0.088 -0.005 0.046
item_ammo_smg1_ttt	2397.5940 -1726.6709 -415.4749	-0.201 0.016 -0.176
item_ammo_smg1_ttt	2446.1318 -1773.7961 -415.5958	0.189 -0.005 0.115
item_ammo_smg1_ttt	1142.3016 -647.8178 -415.5777	0.472 -0.004 0.305
item_ammo_smg1_ttt	1162.0364 -653.9433 -415.4829	-0.267 0.014 -0.229
item_ammo_smg1_ttt	1163.9407 -693.8428 -415.4978	-0.802 0.012 -0.595
weapon_zm_shotgun	728.5809 -818.7674 -341.0569	-0.450 -0.401 -84.343
weapon_zm_shotgun	591.8812 -2151.1504 -344.7998	-0.421 -19.415 -83.783
weapon_zm_shotgun	604.4385 803.3383 -422.8224	-0.728 10.560 92.944
weapon_zm_shotgun	1670.1361 -1992.5808 -638.9533	-1.026 -9.451 -89.484
weapon_zm_shotgun	-1346.3577 -950.0060 -378.8010	-2.217 50.260 -96.253
weapon_zm_shotgun	680.9303 -1637.6425 -638.7287	-0.312 8.300 83.960
weapon_ttt_m16	136.4971 -819.2408 -94.8408	2.037 -8.139 84.294
weapon_ttt_m16	391.4264 -1080.8989 -267.0100	12.564 24.117 90.048
weapon_ttt_m16	1206.6782 -825.6640 -295.8532	1.891 11.515 -84.876
weapon_ttt_m16	1432.0265 -1947.4438 -196.1137	-21.316 -28.347 97.920
weapon_zm_molotov	-2807.1750 -697.8660 -413.0998	-1.630 0.380 2.090
weapon_zm_molotov	-2721.6455 -719.8647 -413.3068	-1.133 0.457 1.645
weapon_zm_molotov	-2653.1995 -587.9620 -411.8945	-1.466 0.404 1.944
weapon_zm_molotov	-2874.9233 -658.8812 -412.1108	2.141 -1.470 -0.102
weapon_zm_sledge	-192.4721 -472.5221 -385.6867	18.065 -131.173 2.368
weapon_zm_sledge	3484.7056 -705.8783 -347.5961	18.344 0.352 2.964
weapon_zm_sledge	-2601.6604 -649.5472 -410.6189	7.915 1.829 3.204
item_box_buckshot_ttt	783.8336 -819.9908 -351.2682	-0.543 -0.003 0.456
item_box_buckshot_ttt	689.8774 -813.6620 -351.3756	0.595 0.004 -0.478
item_box_buckshot_ttt	798.1404 -870.9255 -366.8139	0.799 0.003 -0.646
item_box_buckshot_ttt	624.7410 -2136.1665 -351.2958	0.843 0.009 0.715
item_box_buckshot_ttt	596.4784 -2132.8955 -351.3413	0.183 0.004 -0.073
item_box_buckshot_ttt	638.0576 -2084.9399 -367.7858	-0.193 0.001 0.233
item_box_buckshot_ttt	538.9272 861.6431 -479.5976	-0.869 -0.012 0.771
item_box_buckshot_ttt	550.3887 934.4661 -479.5495	-0.489 -0.007 0.434
item_box_buckshot_ttt	595.4813 873.4266 -479.5560	-0.536 -0.007 0.478
item_box_buckshot_ttt	1721.4069 -1999.6978 -639.6448	1.042 0.000 -0.838
item_box_buckshot_ttt	1709.7002 -2019.9850 -639.5629	-0.596 -0.007 0.528
item_box_buckshot_ttt	1671.8414 -2014.0807 -639.6151	-1.000 -0.010 0.896
item_box_buckshot_ttt	1181.6313 -764.3894 -415.5348	-0.373 -0.006 0.331
item_box_buckshot_ttt	1153.3126 -766.7976 -415.5190	-0.248 -0.005 0.220
item_box_buckshot_ttt	1130.0438 -767.9615 -415.6495	0.834 0.002 -0.667
item_box_buckshot_ttt	1094.2712 -766.8333 -415.5972	-0.856 -0.010 0.763
item_box_buckshot_ttt	1103.6859 -742.3868 -415.6230	0.475 0.018 -0.296
item_box_buckshot_ttt	1124.9089 -744.0864 -415.6152	-0.998 -0.010 0.895
item_box_buckshot_ttt	1154.5627 -742.4226 -415.6150	-0.954 -0.010 0.856
item_box_buckshot_ttt	1184.0234 -740.3384 -415.6208	0.121 0.003 -0.011
item_box_buckshot_ttt	-1343.8320 -995.9791 -407.6108	-0.994 0.017 0.882
item_box_buckshot_ttt	-1344.5146 -978.2582 -399.5631	-0.596 -0.007 0.529
item_box_buckshot_ttt	-1343.1389 -959.5229 -391.5460	0.525 -0.011 0.433
item_box_buckshot_ttt	729.5823 -1598.7914 -639.6185	-0.231 0.001 0.274
item_box_buckshot_ttt	658.2901 -1601.6066 -639.6711	0.282 0.003 -0.216
item_box_buckshot_ttt	616.2752 -1619.3307 -639.5753	-0.692 -0.007 0.614
ttt_random_ammo	1214.2211 -706.5905 -415.5594	1.113 -0.028 -1.345
ttt_random_ammo	1199.1064 -690.4185 -415.6070	0.814 -0.008 -0.937
ttt_random_ammo	1198.1328 -648.4364 -415.6309	0.091 -0.000 -0.045
ttt_random_ammo	1214.4722 -662.8389 -415.5669	1.327 -0.033 -1.610
ttt_random_ammo	1271.7335 -726.2048 -415.6509	0.051 -0.000 0.014
ttt_random_ammo	1319.7396 -722.5621 -415.5582	1.141 -0.029 -1.385
ttt_random_ammo	1385.7944 -721.8550 -415.6445	0.057 -0.000 0.003
ttt_random_ammo	1371.7098 -652.9861 -415.6696	0.046 -0.000 0.029
ttt_random_ammo	1310.5535 -648.5460 -415.6176	0.213 -0.001 -0.201
ttt_random_ammo	1259.5757 -634.8087 -415.6509	0.051 -0.000 0.014
ttt_random_ammo	1258.8945 -671.6702 -415.6191	0.189 -0.001 -0.170
ttt_random_ammo	1310.1528 -682.0831 -392.1781	0.047 0.000 -0.020
ttt_random_ammo	1263.8760 -680.6013 -392.1536	0.092 0.000 0.049
ttt_random_ammo	1347.5726 -680.6630 -392.1338	0.567 0.005 0.637
ttt_random_ammo	1061.7106 -682.6809 -392.1457	0.154 0.001 0.128
ttt_random_ammo	1105.2920 -682.6583 -392.2137	0.048 0.000 -0.038
ttt_random_ammo	1137.4474 -683.2640 -392.1039	1.667 0.045 2.026
ttt_random_ammo	1587.2885 -2252.8301 -415.5797	1.559 -0.040 -1.887
ttt_random_ammo	1644.5675 -2303.7539 -415.6273	0.110 -0.000 -0.070
ttt_random_ammo	1709.3832 -2188.0334 -415.6112	0.411 -0.003 -0.445
ttt_random_ammo	1800.6067 -2160.1301 -415.6554	0.049 -0.000 0.019
ttt_random_ammo	1847.1665 -2278.5615 -415.6488	0.053 -0.000 0.011
ttt_random_ammo	2075.9661 -2309.6006 -415.6531	0.050 -0.000 0.017
ttt_random_ammo	2027.0258 -2120.3369 -415.5568	1.086 -0.028 -1.314
ttt_random_ammo	1947.0291 -2148.8101 -415.6385	0.067 -0.000 -0.011
ttt_random_ammo	1960.1943 -2035.8099 -415.6346	0.076 -0.000 -0.025
ttt_random_ammo	1888.8770 -1880.8346 -415.6346	0.077 -0.000 -0.026
ttt_random_ammo	2036.7710 -1712.3083 -415.5834	1.569 -0.041 -1.892
ttt_random_ammo	1928.9598 -1738.8856 -415.6097	0.470 0.003 0.517
ttt_random_ammo	1833.7561 -1729.6837 -415.6133	0.311 0.002 0.321
ttt_random_ammo	1690.3019 -1704.8298 -415.6721	0.046 0.000 -0.031
ttt_random_ammo	1566.8093 -1697.4467 -415.6053	1.275 0.020 1.498
ttt_random_ammo	1659.7672 -1817.0033 -415.6290	0.098 0.000 0.055
ttt_random_ammo	1802.4098 -1851.4530 -415.5406	0.783 0.023 0.949
ttt_random_ammo	1733.9780 -1944.1083 -415.5659	1.229 0.030 1.480
ttt_random_ammo	1478.2235 -1817.3376 -415.6721	0.046 -0.000 0.031
ttt_random_ammo	1453.4857 -1993.4388 -415.6577	0.048 -0.000 0.021
ttt_random_ammo	1365.6687 -1869.5006 -415.6616	-0.047 0.000 0.025
ttt_random_ammo	1620.1071 -1975.1201 -415.6365	0.071 0.000 0.018
ttt_random_ammo	1711.1508 -2071.4434 -415.6879	0.048 -0.000 0.037
ttt_random_ammo	1862.2903 -2030.9899 -415.6149	0.280 -0.001 -0.284
ttt_random_ammo	1561.6489 -2078.8132 -415.6672	0.046 0.000 -0.028
ttt_random_ammo	1813.1165 -1978.3602 -415.6176	0.214 -0.001 -0.201
ttt_random_ammo	235.2269 -2075.0776 -367.8412	-0.047 -0.000 -0.037
ttt_random_ammo	257.7445 -2012.0948 -321.3686	0.190 0.001 0.174
ttt_random_ammo	228.3152 -2030.4255 -321.3987	0.050 0.000 -0.013
ttt_random_ammo	278.2791 -1979.9398 -321.3153	1.148 0.030 1.379
ttt_random_ammo	363.9244 -1624.1381 -415.5452	-1.396 -0.033 1.697
ttt_random_ammo	431.9631 -1637.9023 -415.6799	0.047 0.000 -0.034
ttt_random_ammo	398.5069 -1801.6754 -415.6054	1.093 0.015 1.276
ttt_random_ammo	-45.9759 -1889.5135 -415.6592	-0.047 -0.000 -0.023
ttt_random_ammo	-108.6550 -1929.8186 -415.6415	-0.060 -0.000 0.001
ttt_random_ammo	-68.6712 -2006.3242 -415.6255	-0.110 -0.000 0.071
ttt_random_ammo	38.1911 -2026.2299 -415.6488	0.053 0.000 -0.011
ttt_random_ammo	139.8643 -1990.4128 -415.6600	0.047 0.000 -0.023
ttt_random_ammo	-576.8344 -1153.8434 -415.5834	1.570 -0.041 -1.892
ttt_random_ammo	-618.2560 -1176.4335 -415.6068	0.959 -0.011 -1.113
ttt_random_ammo	-605.0291 -1291.5887 -415.6084	0.630 -0.005 -0.712
ttt_random_ammo	-530.8752 -1417.3290 -415.5529	1.027 -0.027 -1.245
ttt_random_ammo	3428.4998 -623.0314 -351.6532	0.050 0.000 -0.017
ttt_random_ammo	3253.1865 -567.2888 -351.6577	0.048 0.000 -0.021
ttt_random_ammo	3386.3938 -684.5380 -351.6404	0.063 0.000 0.006
ttt_random_ammo	3289.6768 -722.2184 -351.5439	0.857 0.024 1.040
ttt_random_ammo	3353.2683 -847.7383 -351.6290	0.099 0.000 0.056
ttt_random_ammo	3451.9521 -845.5349 -351.6385	0.067 0.000 0.012
ttt_random_ammo	3454.8315 -1027.7491 -351.5345	-0.076 0.319 -0.169
ttt_random_ammo	3346.3267 -999.8107 -351.6290	0.100 0.000 0.057
ttt_random_ammo	3206.0095 -1019.5112 -351.6133	0.313 0.002 0.325
ttt_random_ammo	3236.4673 -874.3310 -351.6055	1.108 0.015 1.294
weapon_zm_mac10	190.7687 -927.9307 -273.3427	-0.682 -36.716 -88.575
weapon_zm_mac10	2425.1052 -1729.4436 -414.7306	-0.014 -37.538 -88.534
weapon_zm_mac10	-2772.1208 -758.8909 -417.3676	-0.613 -27.820 -87.219
weapon_zm_mac10	805.2446 -428.4090 -318.2219	-0.095 -35.712 -88.714
item_ammo_357_ttt	1041.1062 -1443.2297 -103.6537	0.453 0.061 0.050
item_ammo_357_ttt	1049.5703 -1425.8829 -103.6829	0.447 0.072 0.062
item_ammo_357_ttt	1064.6270 -1446.4568 -103.6286	0.515 -0.052 -0.008
item_ammo_357_ttt	696.6888 -915.7434 -127.9315	0.450 0.066 0.053
item_ammo_357_ttt	587.4219 -919.6426 -127.8734	0.462 0.056 0.030
item_ammo_357_ttt	232.8084 -1337.8221 -271.6655	0.451 0.064 0.054
item_ammo_357_ttt	204.9929 -1335.2396 -271.6519	0.453 0.061 0.049
item_ammo_357_ttt	177.7119 -1328.9850 -271.6301	0.458 0.057 0.040
item_ammo_357_ttt	1061.7645 -656.1039 -415.5651	0.471 0.054 0.014
item_ammo_357_ttt	1064.4628 -640.7979 -415.6316	0.458 0.057 0.041
item_ammo_357_ttt	1086.4430 -657.5815 -415.6900	0.446 0.073 0.064
item_ammo_357_ttt	1087.5277 -643.5181 -415.6924	0.446 0.080 0.065
item_ammo_357_ttt	1409.9066 -2302.8413 -415.6464	0.455 0.060 0.047
item_ammo_357_ttt	1415.5950 -2290.7012 -415.6363	0.457 0.058 0.043
item_ammo_357_ttt	1433.6405 -2279.0403 -415.6331	0.457 0.058 0.041
item_ammo_357_ttt	1454.9038 -2272.0564 -415.6634	0.451 0.065 0.053
item_ammo_357_ttt	1477.8687 -2277.3652 -415.5790	0.468 0.054 0.020
item_ammo_revolver_ttt	722.8151 -1437.7178 -599.6655	0.451 0.064 0.055
item_ammo_revolver_ttt	640.4725 -1464.3444 -599.6534	0.466 0.041 0.043
item_ammo_revolver_ttt	590.5856 -1431.6536 -599.6675	0.450 0.064 0.055
item_ammo_revolver_ttt	576.7245 -1022.8065 -415.6363	0.457 0.058 0.043
item_ammo_revolver_ttt	584.7637 -1051.1194 -366.7600	0.456 -0.050 -0.022
item_ammo_revolver_ttt	620.9088 -1040.9677 -415.6696	0.450 0.068 0.056
item_ammo_revolver_ttt	368.5934 -795.0667 -383.6696	0.450 0.068 0.056
item_ammo_revolver_ttt	392.3618 -860.9146 -383.6575	0.452 0.062 0.051
item_ammo_revolver_ttt	467.9264 -796.2058 -383.6614	0.452 0.065 0.053
item_ammo_revolver_ttt	349.1316 -1488.8726 -127.6696	0.450 0.068 0.056
item_ammo_revolver_ttt	379.2809 -1489.9695 -127.6876	0.447 0.073 0.063
item_ammo_revolver_ttt	420.0411 -1494.7407 -127.6482	0.454 0.060 0.047
item_ammo_revolver_ttt	1744.7424 -755.7968 -303.8306	0.433 -0.060 -0.046
item_ammo_revolver_ttt	1735.2483 -729.8746 -303.7352	0.464 -0.050 -0.014
item_ammo_revolver_ttt	81.6790 -1996.1937 -415.6173	0.460 0.056 0.035
item_ammo_revolver_ttt	131.9800 -2040.4293 -415.6829	0.448 0.073 0.061
item_ammo_revolver_ttt	167.7625 -2035.2139 -414.2697	0.304 -1.192 -17.391
item_ammo_revolver_ttt	-168.6781 -541.1366 -171.5889	0.466 0.054 0.024
item_ammo_revolver_ttt	-193.0912 -460.0015 -171.6050	0.463 0.054 0.030
item_ammo_revolver_ttt	-246.6599 -428.8382 -171.6784	0.448 0.068 0.060
item_ammo_revolver_ttt	225.2854 -1096.1830 -287.6537	0.453 0.062 0.049
item_ammo_revolver_ttt	200.1987 -1139.1200 -287.6073	0.462 0.055 0.031
item_ammo_revolver_ttt	151.9948 -1115.1663 -287.6518	0.454 0.062 0.049
item_ammo_revolver_ttt	590.1724 275.2719 -415.6654	0.451 0.065 0.054
item_ammo_revolver_ttt	597.1943 242.1385 -415.6500	0.454 0.062 0.048
item_ammo_revolver_ttt	573.3483 235.8644 -415.6429	0.455 0.060 0.045
item_ammo_revolver_ttt	1389.6925 -305.9471 -169.8983	0.330 -0.425 6.165
item_ammo_revolver_ttt	1394.7087 -344.7823 -173.9067	0.257 -0.421 6.281
item_ammo_revolver_ttt	1389.9272 -378.4501 -177.3852	0.183 -0.419 6.397
item_ammo_revolver_ttt	1492.7992 -2294.6082 -415.6518	0.454 0.062 0.049
item_ammo_revolver_ttt	1478.0994 -2295.2683 -415.5906	0.466 0.054 0.024
item_ammo_revolver_ttt	1460.3008 -2295.1765 -415.6634	0.451 0.065 0.053
item_ammo_revolver_ttt	1448.1573 -2300.2214 -415.5995	0.464 0.055 0.028
item_ammo_revolver_ttt	1430.2883 -2302.9324 -415.6555	0.453 0.062 0.050
ttt_playerspawn	420.6456 -463.5528 -639.5002	-0.000 -43.092 0.000
ttt_playerspawn	770.1592 -479.7193 -639.5194	-0.001 -90.731 0.062
ttt_playerspawn	971.5304 -490.7674 -639.5151	0.060 -131.466 0.012
ttt_playerspawn	440.6784 -289.7831 -639.5002	-0.000 -47.027 0.000
ttt_playerspawn	800.6735 -166.7278 -639.5222	0.035 -108.460 -0.036
ttt_playerspawn	867.6529 -406.4979 -766.9074	-0.138 -76.585 -2.055
ttt_playerspawn	875.4769 -600.1230 -767.5181	-0.059 -124.921 -0.002
ttt_playerspawn	877.7667 -788.1463 -767.5341	0.063 0.003 0.045
ttt_playerspawn	886.5192 -1137.2043 -765.4399	-2.647 146.092 0.737
ttt_playerspawn	794.7801 -1253.2717 -763.5389	-1.183 140.082 -3.410
ttt_playerspawn	707.9947 -1035.0261 -767.5751	-0.002 0.136 0.079
ttt_playerspawn	721.8278 -885.0110 -767.3587	0.821 -143.515 -0.357
ttt_playerspawn	736.6923 -721.3256 -767.5374	-0.216 -128.204 0.061
ttt_playerspawn	649.2988 -610.5751 -767.2730	-0.868 -90.488 -0.144
ttt_playerspawn	553.1823 -763.1481 -767.6049	-0.042 -0.000 0.042
ttt_playerspawn	532.5093 -910.3706 -767.5753	-0.030 -0.000 0.030
ttt_playerspawn	404.3987 -1284.1053 -767.5862	0.277 64.444 0.189
ttt_playerspawn	413.7294 -1072.8041 -767.5067	0.018 19.634 -0.021
ttt_playerspawn	368.2804 -610.3234 -767.5287	-0.196 -38.425 -0.186
ttt_playerspawn	373.1510 -865.4277 -767.5233	-0.009 -0.000 0.009
ttt_playerspawn	1207.8768 -977.5284 -766.3845	-1.625 -170.301 -0.640
ttt_playerspawn	1234.5709 -589.1120 -639.0288	-1.575 -179.289 -0.074
ttt_playerspawn	1145.1871 -477.9218 -635.7282	-3.952 -173.983 -0.306
ttt_playerspawn	568.9590 -1147.6610 -639.5272	-0.040 -0.000 0.040
ttt_playerspawn	631.8643 -185.7190 -639.5523	0.166 -81.977 -0.000
ttt_playerspawn	897.2862 -964.2075 -762.4735	2.006 -164.605 2.518
weapon_zm_rifle	1059.5773 -1469.8755 -102.6111	3.194 -97.577 65.872
weapon_zm_rifle	652.5021 -919.2928 -126.8727	3.155 -178.015 67.404
weapon_zm_rifle	206.5158 -1308.0353 -262.5282	0.303 41.588 55.347
weapon_zm_rifle	-2800.5652 -603.6893 -415.2771	3.132 13.397 65.889
weapon_zm_rifle	1464.8274 -2339.6563 -414.6490	3.275 13.171 65.006
weapon_ttt_confgrenade	-2870.0259 -727.3835 -414.0299	2.600 0.705 1.223
weapon_ttt_confgrenade	-2821.7939 -810.3622 -415.7357	-0.258 -0.020 2.451
weapon_ttt_confgrenade	-1230.7603 -1211.2708 -376.0406	2.189 -0.331 -1.878
