# Trouble in Terrorist Town weapon/ammo placement overrides
# For map: dm_unforgiven
# Exported by: Zeek
setting:	replacespawns 1
weapon_ttt_smokegrenade	-104.233330 859.554321 256.172791	-2.088 -1.401 -1.142
weapon_ttt_smokegrenade	-811.302490 488.469299 64.156204	-2.698 -1.246 -1.475
ttt_random_weapon	-773.907837 -459.728729 113.198433	1.893 4.717 -92.557
ttt_random_weapon	-672.986572 -247.206528 113.214088	1.716 4.168 -92.961
ttt_random_weapon	-672.893127 -259.557068 113.199394	1.882 4.552 -92.581
ttt_random_weapon	-672.927795 -290.208008 113.170761	1.926 4.672 -92.161
ttt_random_weapon	-673.086792 -88.499596 113.214111	1.716 3.932 -92.961
ttt_random_weapon	340.768860 1229.857910 257.210297	1.759 4.707 -92.863
ttt_random_weapon	302.998932 1244.421631 257.211975	1.740 4.706 -92.906
ttt_random_weapon	276.169525 1217.012451 257.207306	1.793 4.710 -92.786
ttt_random_weapon	-713.070129 1132.513184 113.205421	1.814 4.712 -92.737
ttt_random_weapon	203.505646 1902.916382 49.703976	-2.486 -6.395 85.323
ttt_random_weapon	-604.294189 1193.374146 129.206055	1.807 4.699 -92.753
ttt_random_weapon	-594.078308 1206.792969 129.198441	1.893 4.717 -92.556
item_ammo_smg1_ttt	-153.722565 -180.377228 192.530411	0.372 0.241 0.438
item_ammo_smg1_ttt	-139.009079 -179.251663 192.426514	0.600 -0.003 0.391
item_ammo_smg1_ttt	-241.691238 1746.864258 160.500671	0.811 -0.011 -0.602
item_ammo_smg1_ttt	-216.592285 1749.514893 160.500610	-0.898 -0.013 0.590
item_ammo_smg1_ttt	-694.487183 -485.929108 256.489319	0.431 0.246 0.422
item_ammo_smg1_ttt	-712.806213 -485.908112 256.531952	-0.418 -0.362 -0.065
weapon_ttt_m16	-368.559875 -169.812592 192.862732	2.137 -6.154 83.915
weapon_ttt_m16	-672.620056 573.726868 320.809540	2.050 -7.556 83.384
weapon_ttt_m16	164.803497 521.435425 64.863548	2.127 -5.695 83.906
weapon_ttt_m16	-855.235840 1447.949341 128.863449	2.128 -5.695 83.907
weapon_ttt_m16	-857.399109 -368.042847 256.914642	2.221 3.815 -83.838
item_box_buckshot_ttt	-37.288956 2069.620361 64.473099	0.951 -0.097 -0.230
item_box_buckshot_ttt	-102.072044 2069.476074 64.453590	0.915 -0.152 -0.247
ttt_random_ammo	-786.710632 -493.422943 112.384666	-0.059 0.002 -0.036
ttt_random_ammo	-775.194153 -493.349274 112.438744	1.284 -0.017 0.368
ttt_random_ammo	-659.187866 -73.413216 112.332855	0.046 -0.000 0.028
ttt_random_ammo	-658.724976 -117.423889 112.473969	-0.435 0.812 0.924
ttt_random_ammo	-658.724731 -150.131302 112.452484	-0.364 0.826 -0.251
ttt_random_ammo	-692.359741 -80.544365 112.320869	-0.047 -0.000 -0.034
ttt_random_ammo	-690.065430 -116.051430 112.364639	-0.072 -0.000 0.019
ttt_random_ammo	-688.824463 -136.582291 112.338409	-0.047 0.000 0.025
ttt_random_ammo	-672.055664 -227.824432 112.359550	0.063 0.000 0.006
ttt_random_ammo	-664.097778 -276.545410 112.376091	0.137 -0.000 -0.104
ttt_random_ammo	-876.309570 -196.449951 112.489670	0.637 -0.474 -0.772
ttt_random_ammo	-876.213684 -218.037430 112.482674	1.465 0.341 1.815
ttt_random_ammo	-853.287048 -193.038300 112.382141	-0.173 -0.001 0.150
ttt_random_ammo	-848.838989 -204.563293 112.322769	0.047 -0.000 0.033
ttt_random_ammo	-850.678711 -380.957520 112.349854	-0.051 -0.000 -0.014
ttt_random_ammo	-871.133362 -413.251373 112.471588	-0.879 -0.463 -1.221
ttt_random_ammo	-842.400696 -387.821075 112.374420	0.122 -0.000 -0.085
ttt_random_ammo	343.294006 1367.641113 304.378235	-0.137 0.000 -0.104
ttt_random_ammo	341.588287 1347.101440 304.351227	0.053 -0.000 0.011
ttt_random_ammo	344.130981 1324.300537 304.401428	-0.625 0.005 -0.706
ttt_random_ammo	-854.129761 1110.180542 128.359543	0.063 -0.000 -0.006
ttt_random_ammo	-854.352966 1133.907715 128.337662	0.047 -0.000 0.025
ttt_random_ammo	-821.154053 1113.443726 128.386642	0.323 0.002 0.336
ttt_random_ammo	-821.208618 1131.314819 128.335251	0.047 0.000 -0.027
ttt_random_ammo	346.589508 1040.651855 64.340019	0.047 -0.000 0.023
ttt_random_ammo	349.261261 1013.535645 64.485657	-0.340 0.463 0.728
ttt_random_ammo	-147.269989 1730.831665 96.502113	-0.930 -1.019 1.110
ttt_random_ammo	-154.855896 1736.140259 96.484940	1.217 0.089 -1.474
ttt_random_ammo	-622.732300 1222.238037 128.327866	0.047 0.000 -0.031
ttt_random_ammo	-632.827576 1208.944214 128.389145	0.411 0.003 0.445
ttt_random_ammo	-623.254517 1185.267090 128.332825	0.047 0.000 -0.028
ttt_random_ammo	-606.391785 1182.784058 128.382492	0.218 0.001 0.207
ttt_random_ammo	-590.785706 1226.511841 128.330368	0.047 0.000 -0.029
ttt_random_ammo	-143.413620 526.181763 288.344574	0.049 0.000 -0.019
ttt_random_ammo	-836.449890 -108.301735 448.383972	0.244 0.001 0.239
ttt_random_ammo	-860.459290 -106.103821 448.370972	0.100 0.000 0.057
weapon_zm_rifle	71.522247 1655.268188 255.095062	3.671 13.273 64.847
weapon_zm_rifle	-647.360535 692.030457 353.063660	0.572 -3.004 -89.254
weapon_zm_rifle	-85.469963 422.271698 255.112854	3.629 13.258 64.950
weapon_zm_rifle	77.697105 863.474487 399.120972	3.611 13.250 64.997
weapon_zm_rifle	-256.471924 -158.121597 305.115143	0.242 -7.752 -88.860
weapon_zm_rifle	-856.603455 -157.119095 262.747986	-0.856 13.066 122.881
weapon_zm_rifle	-648.528564 575.375854 641.050293	0.549 -5.632 -89.061
weapon_zm_mac10	-142.229324 -147.133881 193.196594	-0.138 -50.631 -88.223
weapon_zm_mac10	-229.625092 1733.398193 161.226013	-0.126 -50.614 -88.423
weapon_zm_mac10	-670.342651 -477.552917 257.293549	0.038 -48.039 -88.146
ttt_playerspawn	-445.757477 1860.416748 48.569801	0.038 -0.001 -0.031
ttt_playerspawn	189.673904 1864.937134 48.548882	0.059 -0.001 -0.057
ttt_playerspawn	-447.184906 85.225426 48.544884	0.063 -0.001 -0.062
ttt_playerspawn	-760.519714 197.533020 48.541462	0.067 -0.001 -0.066
ttt_playerspawn	-288.264099 -448.428436 64.543198	0.064 0.000 -0.065
ttt_playerspawn	166.943115 988.856506 64.530914	0.078 0.000 -0.079
ttt_playerspawn	-292.706390 1017.934998 64.548111	0.058 0.000 -0.059
ttt_playerspawn	-563.578003 2221.733887 64.538757	0.069 0.000 -0.070
ttt_playerspawn	169.898315 2199.648682 64.551872	0.054 0.000 -0.055
ttt_playerspawn	244.083328 1413.642944 400.570251	0.028 0.001 -0.040
ttt_playerspawn	109.027489 626.719055 256.555359	0.052 -0.001 -0.049
ttt_playerspawn	-394.949402 -338.972595 192.559219	0.046 0.000 -0.047
ttt_playerspawn	-290.257751 -302.596527 192.581161	0.031 -0.000 -0.029
ttt_playerspawn	-161.867783 -292.218475 192.544891	0.062 0.000 -0.063
ttt_playerspawn	-741.172852 -137.782333 256.540558	0.067 0.000 -0.068
ttt_playerspawn	-740.086609 -273.432373 256.537811	0.070 0.000 -0.071
ttt_playerspawn	-729.461853 -364.658783 256.539673	0.068 0.000 -0.069
ttt_playerspawn	-763.468262 614.958984 320.567932	0.039 -0.001 -0.033
ttt_playerspawn	-739.426453 1454.594238 384.541473	0.067 -0.001 -0.066
ttt_playerspawn	-755.828491 657.878540 608.562195	0.045 -0.001 -0.041
ttt_playerspawn	-740.716003 -367.560852 384.535919	0.073 -0.001 -0.072
ttt_playerspawn	-732.930603 -130.490906 384.532959	0.077 -0.001 -0.076
ttt_playerspawn	21.235107 1432.485840 256.552582	0.055 -0.001 -0.053
ttt_playerspawn	219.801376 1389.817627 256.548889	0.059 -0.001 -0.057
item_ammo_357_ttt	36.572750 1650.688965 256.338562	0.451 0.064 0.053
item_ammo_357_ttt	109.802231 1653.518799 256.381378	0.460 0.056 0.036
item_ammo_357_ttt	-642.506653 681.396423 352.370728	0.519 0.083 0.060
item_ammo_357_ttt	-651.376648 683.081665 352.323883	0.449 0.069 0.058
item_ammo_357_ttt	-95.513336 444.418274 256.323883	0.449 0.068 0.059
item_ammo_357_ttt	125.145638 857.479004 400.338562	0.451 0.064 0.053
item_ammo_357_ttt	34.331039 853.777466 400.332458	0.450 0.064 0.055
item_ammo_357_ttt	-256.465240 -137.652557 304.350677	0.646 -0.000 0.034
item_ammo_357_ttt	-243.169907 -136.223846 304.346313	0.453 0.061 0.050
item_ammo_357_ttt	-860.108459 -166.748703 258.666656	0.967 10.462 31.974
item_ammo_357_ttt	-646.008606 594.021301 640.378662	0.460 0.056 0.037
item_ammo_357_ttt	-649.131897 568.205750 640.382751	0.461 0.056 0.035
item_ammo_pistol_ttt	-357.110687 -191.422226 192.360718	-0.121 -0.019 -0.037
item_ammo_pistol_ttt	-372.897095 -190.602631 192.406952	-0.080 -0.020 -0.024
item_ammo_pistol_ttt	-340.896301 -314.984650 195.366028	88.575 -157.663 -175.384
item_ammo_pistol_ttt	-447.421082 -329.627502 195.352829	88.830 157.306 175.847
item_ammo_pistol_ttt	-185.741760 -328.863068 192.445648	0.033 -3.480 0.356
item_ammo_pistol_ttt	-666.968811 549.636353 320.401245	-0.085 -0.020 -0.026
item_ammo_pistol_ttt	-676.427551 549.829407 320.354309	-0.126 -0.019 -0.038
item_ammo_pistol_ttt	-684.374939 549.653625 320.360718	-0.121 -0.019 -0.037
item_ammo_pistol_ttt	103.086159 596.801086 256.372681	-0.110 -0.020 -0.033
item_ammo_pistol_ttt	156.095337 537.827759 64.370750	-0.112 -0.020 -0.034
item_ammo_pistol_ttt	165.831512 537.518188 64.388695	-0.096 -0.020 -0.029
item_ammo_pistol_ttt	175.130768 535.975342 64.338196	-0.140 -0.019 -0.043
item_ammo_pistol_ttt	-446.209595 57.638153 48.345310	-0.134 -0.019 -0.041
item_ammo_pistol_ttt	-868.324829 1428.330688 128.461731	-0.476 0.223 -0.387
item_ammo_pistol_ttt	-860.139587 1426.968384 128.383591	-0.101 -0.020 -0.030
item_ammo_pistol_ttt	-305.686035 984.288147 64.475029	-0.500 -0.897 -0.008
item_ammo_pistol_ttt	-212.529724 1177.376953 64.411507	-0.450 0.132 -0.550
item_ammo_pistol_ttt	-229.295914 1184.817749 64.429840	-0.060 -0.020 -0.018
item_ammo_pistol_ttt	-855.302979 -391.585693 256.354309	-0.126 -0.019 -0.038
item_ammo_pistol_ttt	317.535156 307.363800 256.390350	-0.095 -0.020 -0.029
item_ammo_pistol_ttt	308.130341 307.414124 256.383606	-0.101 -0.020 -0.031
item_ammo_pistol_ttt	300.445679 307.598999 256.370758	-0.112 -0.020 -0.034
item_ammo_pistol_ttt	291.612274 307.989136 256.401215	-0.085 -0.020 -0.026
item_ammo_pistol_ttt	283.522034 308.611359 256.393585	-0.092 -0.020 -0.028
item_ammo_pistol_ttt	273.873138 309.011627 256.347626	-0.132 -0.019 -0.040
item_ammo_pistol_ttt	267.316559 310.498169 256.347015	-0.212 -0.021 -0.082
item_ammo_pistol_ttt	259.365051 309.825256 256.387024	-0.098 -0.020 -0.030
item_ammo_pistol_ttt	-817.693909 1545.263306 64.431602	-0.712 0.182 -0.666
item_ammo_pistol_ttt	-831.405945 1545.370483 64.438545	1.590 -0.547 0.123
item_ammo_pistol_ttt	-825.117249 1545.478394 64.477493	1.448 0.075 0.331
item_ammo_pistol_ttt	-841.317261 1545.426025 64.456406	0.868 0.260 0.006
item_ammo_pistol_ttt	-850.262146 1545.317261 64.461029	-0.348 0.126 -0.356
item_ammo_pistol_ttt	-825.812988 1635.388306 64.364815	-0.117 -0.019 -0.035
item_ammo_pistol_ttt	-838.991455 1637.124878 64.404968	0.029 0.061 0.132
item_ammo_pistol_ttt	-849.377319 1638.351563 64.448006	0.523 -0.187 -0.067
item_ammo_pistol_ttt	-857.588257 1638.308960 64.444923	0.606 0.206 -0.154
item_ammo_pistol_ttt	-832.524475 1638.498779 64.399925	-0.175 -0.023 -0.079
item_ammo_pistol_ttt	-818.973816 1638.352417 64.468628	0.027 -0.014 -0.180
weapon_zm_molotov	-688.780823 1631.853882 112.151649	-2.867 -1.204 -1.566
weapon_zm_molotov	-676.836182 1617.843994 112.216690	-0.483 -1.514 -0.264
weapon_ttt_confgrenade	312.880280 1384.002197 258.298096	9.658 83.353 93.422
weapon_ttt_confgrenade	317.370178 1333.227783 258.368561	-36.153 5.215 -98.274
weapon_ttt_confgrenade	-651.527344 602.269958 354.166840	-36.834 -49.156 -91.695
weapon_ttt_confgrenade	-708.257324 490.473877 65.120697	-6.844 -33.673 -57.055
weapon_ttt_confgrenade	365.323975 409.003448 402.377228	-35.217 4.182 -98.078
weapon_ttt_confgrenade	354.128723 437.247375 402.127014	-36.225 -56.269 -90.740
weapon_ttt_confgrenade	331.599915 409.199036 402.110046	-35.966 -56.521 -90.341
item_ammo_revolver_ttt	-755.826843 225.221222 48.466755	1.225 0.124 -0.581
item_ammo_revolver_ttt	135.682022 1686.576660 96.319389	0.448 0.072 0.061
item_ammo_revolver_ttt	122.443176 1671.947021 96.403557	0.464 0.054 0.027
item_ammo_revolver_ttt	-838.309509 -471.271851 144.357040	0.455 0.059 0.045
item_ammo_revolver_ttt	-849.074280 -472.286377 144.334534	0.451 0.064 0.054
item_ammo_revolver_ttt	-863.519958 1513.870239 128.330368	0.450 0.068 0.056
item_ammo_revolver_ttt	-850.296875 1526.412231 128.353577	0.454 0.059 0.047
item_ammo_revolver_ttt	-1.056719 2230.054932 64.445282	0.801 -0.426 -0.580
weapon_zm_shotgun	-69.515945 2062.774414 65.113373	-0.449 -8.886 -84.292
weapon_zm_sledge	-439.681122 1887.235107 45.808449	18.634 -0.367 2.992
weapon_zm_sledge	-449.150574 124.059509 45.808449	18.634 -0.369 2.992
weapon_zm_sledge	321.704834 939.267273 141.808441	18.634 -0.363 2.992
weapon_zm_revolver	-770.263489 218.376785 48.897141	2.240 -18.493 -84.572
weapon_zm_revolver	131.623917 1673.576172 96.839035	2.612 -40.220 -84.784
weapon_zm_revolver	-827.464417 -475.188599 144.827393	2.213 -18.357 -83.856
weapon_zm_revolver	-867.213318 1526.175171 128.886383	2.236 -18.492 -84.461
weapon_zm_revolver	13.038744 2227.578857 64.831665	2.215 -18.398 -83.900
weapon_zm_revolver	191.762772 2181.811768 64.944939	2.648 24.539 84.122
weapon_ttt_glock	-309.704468 -325.828125 193.098129	0.085 -2.885 90.377
weapon_ttt_glock	112.810455 594.812134 257.110199	-0.651 25.630 91.255
weapon_ttt_glock	183.616852 969.631531 65.109512	-0.610 25.634 91.171
weapon_ttt_glock	229.941422 371.418945 257.113983	-0.876 25.578 91.721
weapon_ttt_glock	230.058456 345.609253 257.109192	-0.591 25.636 91.132
weapon_ttt_glock	229.981888 322.887543 257.111725	-0.744 25.618 91.447
weapon_ttt_glock	357.108032 305.631805 289.112610	-0.797 25.608 91.557
weapon_ttt_glock	-869.383179 1547.086304 65.107483	-0.489 25.640 90.921
weapon_ttt_glock	-871.029175 1560.099487 65.112785	-0.807 25.596 91.576
weapon_ttt_glock	-869.104248 1568.889282 65.110550	-0.673 25.629 91.299
weapon_ttt_glock	-868.255798 1581.711792 65.106758	-0.446 25.641 90.832
weapon_zm_pistol	-419.761108 -357.573608 193.092285	0.197 3.756 90.341
weapon_zm_pistol	-145.157547 -329.711761 192.905777	0.640 -37.244 -89.114
weapon_zm_pistol	-565.469543 2196.366211 65.048752	1.148 43.574 89.798
weapon_zm_pistol	-463.433167 54.406151 48.902111	0.671 -37.251 -89.083
weapon_zm_pistol	-270.951630 1002.158875 64.872589	0.907 -37.280 -88.829
weapon_zm_pistol	-231.827194 1170.044800 64.597229	36.078 8.386 12.957
weapon_zm_pistol	354.893921 276.111053 256.883911	0.815 -37.266 -88.926
weapon_zm_pistol	-869.228516 1595.308838 64.920029	0.526 -37.224 -89.236
weapon_zm_pistol	-868.227356 1611.147339 64.867317	0.950 -37.281 -88.783
weapon_zm_pistol	-868.157837 1620.402222 64.899529	0.691 -37.251 -89.061
weapon_zm_pistol	-871.957397 1635.556519 64.895531	0.723 -37.258 -89.026
weapon_zm_pistol	-869.565674 -194.253540 384.945770	0.320 -37.190 -89.457
weapon_zm_pistol	-875.800354 -231.503723 384.939972	0.744 35.629 88.788
weapon_zm_pistol	-876.103088 -270.460602 384.989166	0.648 35.500 89.453
