# Trouble in Terrorist Town weapon/ammo placement overrides
# For map: nt_sentinel
# Exported by: Boxiii
setting:	replacespawns 1
ttt_random_weapon	337.805756 537.889038 16.412924	-0.843 -10.852 90.630
ttt_random_weapon	393.462921 552.548096 20.382185	-0.948 -3.877 93.697
ttt_random_weapon	444.167877 568.837158 23.295143	-0.967 -8.200 93.448
ttt_random_weapon	490.981964 593.344482 23.079931	2.706 5.000 -93.076
ttt_random_weapon	539.056274 614.104553 22.074564	1.380 3.486 -91.131
ttt_random_weapon	601.111694 625.102661 23.520805	1.068 -9.117 88.147
ttt_random_weapon	351.796265 1301.909058 71.173676	1.492 4.674 -93.475
ttt_random_weapon	363.550110 1322.034912 71.160728	1.638 4.694 -93.139
ttt_random_weapon	362.572845 1280.053101 100.595612	1.527 4.679 -93.395
ttt_random_weapon	356.525696 1250.342529 100.573280	1.779 4.709 -92.817
ttt_random_weapon	355.291504 1200.094482 71.136650	1.910 4.718 -92.517
ttt_random_weapon	356.876801 1180.833252 71.163452	1.608 4.691 -93.210
ttt_random_weapon	654.750732 1355.651001 71.151161	1.747 4.706 -92.892
ttt_random_weapon	655.720825 1331.141602 71.168976	1.545 4.682 -93.353
ttt_random_weapon	659.101685 1292.540161 100.515312	2.351 4.756 -91.416
ttt_random_weapon	663.806335 1260.375366 100.563927	1.884 4.717 -92.576
ttt_random_weapon	665.280701 1223.290771 71.151161	1.747 4.706 -92.892
ttt_random_weapon	659.848145 1209.822998 71.145164	1.814 4.712 -92.737
item_ammo_smg1_ttt	2948.965088 -280.911591 320.517792	0.690 -0.035 -0.149
item_ammo_smg1_ttt	629.409607 -1286.076416 32.432594	0.837 -0.001 0.549
item_ammo_smg1_ttt	1360.979370 -250.364548 396.818481	0.458 0.006 -0.291
item_ammo_smg1_ttt	-334.703552 -248.891815 402.364227	0.049 -0.011 0.019
weapon_ttt_m16	386.992157 973.409424 320.855347	2.231 -5.791 83.988
weapon_ttt_m16	336.822418 -993.134827 320.865021	2.108 -5.781 83.892
weapon_ttt_m16	414.147675 -1309.920410 32.838207	2.047 -5.585 83.600
weapon_ttt_m16	31.852215 30.745768 320.858856	2.186 -5.785 83.953
weapon_ttt_m16	991.601440 -47.587391 320.986877	1.681 -26.751 85.038
item_box_buckshot_ttt	-1930.231567 262.004089 320.382294	-0.367 0.001 0.381
item_box_buckshot_ttt	102.250458 -260.186554 33.244499	-0.404 -0.090 -0.239
item_box_buckshot_ttt	122.573593 -261.462463 33.382233	-0.366 -0.005 -0.359
item_box_buckshot_ttt	914.407471 265.335480 33.438217	-0.577 -0.006 0.515
item_box_buckshot_ttt	-5.790172 -267.734863 32.516804	0.823 -0.010 -0.671
item_box_buckshot_ttt	272.478973 -838.866638 128.091507	-0.241 0.000 0.282
item_box_buckshot_ttt	294.877899 -840.941406 128.074554	0.034 -0.090 0.079
item_box_buckshot_ttt	1218.119873 237.181396 396.805969	-1.027 -0.005 0.829
item_box_buckshot_ttt	-203.263367 234.592285 396.834198	0.561 -0.002 -0.343
ttt_random_ammo	617.475891 607.427368 20.333155	2.360 1.386 5.605
ttt_random_ammo	565.262695 596.913147 20.735260	-2.009 -0.910 6.105
ttt_random_ammo	564.763672 590.667053 20.395716	0.977 -1.069 5.957
ttt_random_ammo	532.131775 583.918030 21.238365	2.348 -0.227 -0.082
ttt_random_ammo	502.072083 567.552673 20.833929	0.903 0.939 6.736
ttt_random_ammo	471.086365 560.029053 20.261972	0.902 0.946 6.679
ttt_random_ammo	432.048859 549.039795 18.828354	-0.629 -0.655 7.957
ttt_random_ammo	390.906006 529.989441 17.718773	1.095 1.965 98.603
ttt_random_ammo	365.939453 525.273804 13.855437	-0.093 0.668 7.220
ttt_random_ammo	355.168976 512.950867 15.521487	-2.159 -23.121 87.632
ttt_random_ammo	-357.741241 1307.456787 32.359539	0.063 0.000 0.006
ttt_random_ammo	-315.523468 1305.982910 32.374420	0.121 -0.000 -0.084
ttt_random_ammo	-267.791260 1307.820313 32.463493	-0.706 -0.641 -1.787
ttt_random_ammo	-267.036957 1302.900513 32.459126	1.506 -0.546 1.196
ttt_random_ammo	-220.772507 1307.138306 32.391277	0.539 0.004 0.602
ttt_random_ammo	-213.273071 1307.350342 32.376175	0.136 0.000 0.103
ttt_random_ammo	-168.110001 1308.617676 32.349030	0.051 0.000 -0.014
ttt_random_ammo	-118.486809 1307.548828 32.393593	0.833 0.009 0.959
ttt_random_ammo	-119.835976 1231.747681 32.367310	0.084 0.000 0.035
ttt_random_ammo	-157.441040 1235.835327 32.359539	0.063 0.000 0.006
ttt_random_ammo	-165.268967 1235.320190 32.361538	0.067 0.000 0.012
ttt_random_ammo	-195.508041 1235.342896 32.445484	1.072 0.028 1.298
ttt_random_ammo	-226.040710 1233.754395 32.394737	1.461 0.025 1.725
ttt_random_ammo	-248.484924 1231.434570 32.423393	1.567 0.040 1.901
ttt_random_ammo	-293.385010 1229.414917 32.415470	1.687 -0.035 -2.045
ttt_random_ammo	-308.482300 1229.633179 32.370979	0.099 0.000 0.055
ttt_random_ammo	-338.452850 1229.058716 32.365410	0.076 -0.000 -0.025
ttt_random_ammo	1370.759521 1235.844727 32.476906	0.396 0.019 0.480
ttt_random_ammo	1312.576416 1226.619385 32.349033	0.051 0.000 -0.014
ttt_random_ammo	1247.243408 1215.423340 32.355450	0.057 -0.000 0.003
ttt_random_ammo	1178.508301 1214.463013 32.342323	0.048 -0.000 0.021
ttt_random_ammo	1154.497925 1214.363525 32.425774	1.392 -0.032 -1.679
ttt_random_ammo	1253.018677 1224.461426 32.357510	0.060 0.000 0.001
ttt_random_ammo	1260.474243 1225.271851 32.346825	0.050 0.000 -0.017
ttt_random_ammo	1301.475342 1230.829468 32.382519	0.213 0.001 0.201
ttt_random_ammo	1347.389648 1238.465942 32.377834	0.150 0.001 0.122
ttt_random_ammo	1377.755127 1279.380127 32.394497	1.104 0.015 1.290
ttt_random_ammo	1338.802734 1279.636108 32.449478	0.621 -3.542 0.785
ttt_random_ammo	1277.091187 1272.458252 32.346828	0.050 0.000 -0.017
ttt_random_ammo	1239.181152 1272.379761 32.419647	1.275 -0.010 1.531
ttt_random_ammo	1238.256226 1277.665771 32.486229	1.191 0.111 1.443
ttt_random_ammo	1222.280762 1287.972534 32.370926	0.100 -0.000 -0.057
ttt_random_ammo	1210.126953 1280.991455 32.394695	1.273 0.019 1.496
ttt_random_ammo	1175.044922 1293.089844 32.415688	0.564 0.122 0.771
ttt_random_ammo	1177.171509 1292.062866 42.814781	1.875 -0.256 0.120
ttt_random_ammo	1246.714600 1274.936157 32.428391	1.372 0.032 1.656
ttt_random_ammo	1311.651367 1273.574707 32.349037	0.051 0.000 -0.014
ttt_random_ammo	1332.158081 1280.582886 35.564545	-88.109 -73.893 61.534
ttt_random_ammo	-291.956299 -1160.935303 135.609421	0.057 0.000 -0.002
ttt_random_ammo	-267.591919 -1138.094238 135.601044	0.050 0.000 -0.016
ttt_random_ammo	-265.289063 -1178.405762 135.659592	1.537 0.040 1.825
ttt_random_ammo	-242.444794 -1161.929443 135.605301	0.053 0.000 -0.010
ttt_random_ammo	-239.122391 -1202.455078 135.698578	1.096 0.029 1.333
ttt_random_ammo	-225.616150 -1192.984375 135.656631	1.583 0.034 1.878
ttt_random_ammo	-218.262924 -1226.727783 135.631088	0.158 0.001 0.132
ttt_random_ammo	-199.425369 -1210.362793 135.587448	0.046 0.000 -0.027
ttt_random_ammo	-198.705078 -1246.417969 135.611420	0.061 0.000 0.003
ttt_random_ammo	-175.341736 -1229.913086 135.601044	0.050 0.000 -0.015
ttt_random_ammo	-174.989304 -1271.122559 135.710693	-1.106 -0.029 1.336
ttt_random_ammo	-151.459229 -1252.348022 135.691116	1.275 0.032 1.552
ttt_random_ammo	-159.500076 -1291.981201 135.599686	-0.050 -0.000 -0.017
ttt_random_ammo	-132.214905 -1271.954834 135.659180	1.594 0.034 1.899
ttt_random_ammo	-124.844765 -1318.714478 135.633713	-0.169 -0.001 0.146
ttt_random_ammo	-109.718163 -1304.031128 135.590576	-0.047 -0.000 -0.025
weapon_zm_rifle	335.147614 588.819458 220.144104	3.606 12.626 65.631
weapon_zm_rifle	31.430401 -469.237000 319.124664	3.659 12.648 65.609
weapon_zm_rifle	452.844269 414.490051 361.432831	3.440 13.206 65.422
weapon_zm_rifle	512.376770 -535.122437 361.325684	3.688 13.293 64.803
weapon_zm_mac10	2947.994629 -267.452209 321.299988	-0.298 -34.824 -88.388
weapon_zm_mac10	627.186035 -1249.723877 33.273491	-0.022 -50.555 -88.953
weapon_zm_mac10	1376.375488 -248.585434 397.658356	-0.667 -51.679 -88.401
weapon_zm_mac10	-315.072998 -254.692581 403.208710	-0.580 -53.913 -88.389
ttt_playerspawn	-2202.011963 -140.773849 388.536346	-0.061 -0.000 0.061
ttt_playerspawn	-2207.929199 -5.361947 388.556976	-0.043 0.000 0.039
ttt_playerspawn	-2201.227539 157.460968 388.548431	0.049 0.000 0.049
ttt_playerspawn	-1759.971924 677.195251 320.527405	0.007 0.000 0.007
ttt_playerspawn	-917.608337 8.115179 148.511627	-0.087 0.000 -0.087
ttt_playerspawn	-1737.939209 -676.679810 320.572693	-0.028 0.000 -0.023
ttt_playerspawn	384.608887 -1275.048706 320.513550	-0.085 -0.000 0.085
ttt_playerspawn	656.862366 -1287.639038 320.541565	-0.057 -0.000 0.057
ttt_playerspawn	720.842041 1492.088257 320.594360	-0.092 -0.000 -0.078
ttt_playerspawn	322.415405 1515.417725 320.518616	-0.080 -0.000 0.080
ttt_playerspawn	1951.712646 -4.661725 148.546249	0.053 0.000 0.053
ttt_playerspawn	3220.219238 144.782089 388.517761	0.079 0.000 0.079
ttt_playerspawn	3222.630615 -24.934319 388.533417	-0.064 -0.000 0.064
ttt_playerspawn	3213.457275 -207.769928 388.528198	-0.069 -0.000 0.069
ttt_playerspawn	1330.908936 -1206.838501 32.564644	-0.112 0.006 -0.000
ttt_playerspawn	488.736694 -1515.713013 32.538864	-0.060 -0.000 0.060
ttt_playerspawn	509.220673 -1058.624634 32.593861	0.045 0.050 -0.026
ttt_playerspawn	496.524963 -84.492592 175.531174	-0.454 -0.235 2.652
item_ammo_357_ttt	319.813660 566.200928 221.386658	0.459 0.054 0.032
item_ammo_357_ttt	42.180008 -492.679230 320.319427	0.448 0.073 0.060
item_ammo_357_ttt	481.068024 391.112549 362.635742	0.472 0.007 0.068
item_ammo_357_ttt	503.520081 -570.901489 362.667969	0.469 0.053 0.016
item_ammo_pistol_ttt	-2172.593506 156.817841 388.391846	-0.099 -0.009 -0.019
item_ammo_pistol_ttt	-2186.238770 1.884951 388.383606	-0.101 -0.020 -0.031
item_ammo_pistol_ttt	-2175.001221 -130.861359 388.360718	-0.121 -0.019 -0.037
item_ammo_pistol_ttt	-888.140808 16.781813 148.335831	-0.141 -0.019 -0.040
item_ammo_pistol_ttt	-1715.658203 -675.039368 320.450958	-0.185 0.161 -0.235
item_ammo_pistol_ttt	698.714966 -1271.050781 320.393585	-0.092 -0.020 -0.028
item_ammo_pistol_ttt	421.358673 -1269.580811 320.347626	-0.132 -0.019 -0.040
item_ammo_pistol_ttt	325.266327 1487.306885 320.358612	-0.122 -0.019 -0.037
item_ammo_pistol_ttt	743.712585 1463.646118 323.263672	89.688 168.088 173.352
item_ammo_pistol_ttt	377.767334 1006.723999 320.352112	-0.128 -0.019 -0.039
item_ammo_pistol_ttt	333.001984 -970.716736 320.340607	-0.138 -0.019 -0.042
item_ammo_pistol_ttt	1922.581421 -3.062927 148.330841	0.145 0.018 -0.041
item_ammo_pistol_ttt	3168.121338 152.908951 391.362854	88.550 159.664 176.275
item_ammo_pistol_ttt	3183.247314 -19.286154 391.257568	-89.898 170.306 -179.995
item_ammo_pistol_ttt	3187.941406 -185.820770 388.320282	-0.156 -0.017 -0.047
item_ammo_pistol_ttt	406.742126 -1273.507324 32.345310	-0.134 -0.019 -0.041
item_ammo_pistol_ttt	39.410477 -1.087908 320.345337	-0.134 -0.019 -0.041
item_ammo_pistol_ttt	23.377207 -7.792440 320.342987	-0.136 -0.019 -0.041
item_ammo_pistol_ttt	971.588806 -18.177244 320.434265	1.644 -0.136 0.113
item_ammo_pistol_ttt	991.802002 -19.003510 320.378265	-0.105 -0.020 -0.032
item_ammo_revolver_ttt	76.072968 969.873596 27.502476	3.535 -0.869 -7.885
item_ammo_revolver_ttt	-1575.087769 -233.117401 354.919556	0.427 0.077 0.039
item_ammo_revolver_ttt	-1578.650024 -197.240234 355.842987	18.591 3.045 0.137
item_ammo_revolver_ttt	-1577.333618 -172.795609 354.961639	0.441 0.064 0.029
item_ammo_revolver_ttt	-1574.628052 -156.491882 354.945221	0.435 0.069 0.033
item_ammo_revolver_ttt	209.023239 -853.206299 238.051453	0.444 0.048 0.035
weapon_zm_shotgun	-1917.928223 269.374725 321.039642	-0.234 -7.647 -83.596
weapon_zm_shotgun	112.189133 -284.483368 34.309414	-1.098 -8.476 -86.420
weapon_zm_shotgun	906.044983 289.447815 34.085354	-0.326 -8.491 -84.026
weapon_zm_shotgun	276.842133 -870.988281 128.727875	-0.187 -8.663 -83.415
weapon_zm_shotgun	1204.862305 214.665985 397.429993	-0.213 -8.957 -83.496
weapon_zm_shotgun	-183.665833 219.016266 397.305450	-0.302 -7.862 -82.331
weapon_zm_sledge	478.378601 -68.901009 15.333226	20.124 3.130 6.143
weapon_zm_sledge	486.713257 -27.844400 14.868484	19.861 -0.741 2.689
weapon_zm_sledge	488.387634 4.652884 14.288453	18.928 6.091 3.674
weapon_zm_revolver	-1735.718384 672.155518 321.060211	2.076 22.367 85.822
weapon_zm_revolver	67.164154 958.980469 28.480085	-4.079 -23.829 -88.787
weapon_zm_revolver	-1674.932861 208.212082 320.970306	1.734 -19.211 -86.259
weapon_zm_revolver	-1648.807861 207.466507 320.970337	1.749 -19.198 -86.231
weapon_zm_revolver	-1634.821533 204.088760 320.970428	1.822 -19.174 -86.104
weapon_zm_revolver	-1619.197144 195.250320 320.970276	1.717 -19.212 -86.287
weapon_zm_revolver	-1583.226929 152.153580 320.970215	1.674 -19.229 -86.362
weapon_zm_revolver	-1579.132690 118.684723 320.970612	1.980 -19.130 -85.829
weapon_zm_revolver	-1581.898682 104.970200 322.838074	3.221 -31.026 -104.048
weapon_zm_revolver	-1560.932007 -149.915878 355.574402	1.815 -19.174 -86.116
weapon_zm_revolver	-1558.780029 -162.061005 355.574463	1.867 -19.163 -86.027
weapon_zm_revolver	-1560.153931 -170.353821 355.557587	1.775 -19.340 -86.004
weapon_zm_revolver	-1560.349854 -177.133698 355.573853	6.505 -19.647 -77.858
weapon_zm_revolver	-1594.108643 -234.550842 355.574280	1.725 -19.212 -86.273
weapon_zm_revolver	-1591.807739 -199.885803 355.581268	2.191 -19.575 -86.006
weapon_zm_revolver	-1590.678345 -186.501175 355.574249	1.709 -19.213 -86.302
weapon_zm_revolver	202.577881 -866.024780 238.680588	1.961 -20.578 -85.863
weapon_zm_revolver	715.846619 -956.375793 93.882317	1.320 -18.088 -86.977
weapon_ttt_glock	-883.108704 3.200994 149.106888	-0.463 25.863 90.852
weapon_ttt_glock	422.944763 -1294.229614 321.111603	-0.753 25.838 91.436
weapon_ttt_glock	311.776550 1481.155640 321.113129	-0.846 25.813 91.623
weapon_ttt_glock	3195.021484 171.257385 388.969940	0.555 11.853 89.520
weapon_ttt_glock	3202.388672 -3.998291 389.079681	-0.773 -30.245 -91.150
weapon_ttt_glock	3205.845703 -180.266708 389.111572	-0.724 25.436 91.423
weapon_zm_pistol	-2174.340088 141.378510 388.976807	0.363 -36.161 -90.131
weapon_zm_pistol	-2187.708740 -11.626325 389.033905	0.001 28.864 88.988
weapon_zm_pistol	-2178.053955 -151.966537 388.978119	0.308 -36.567 -90.076
weapon_zm_pistol	-1717.530396 -685.135376 321.071716	0.664 27.344 90.654
weapon_zm_pistol	697.386902 -1303.957764 320.919128	0.723 -37.193 -89.309
weapon_zm_pistol	709.137146 1467.273438 320.965057	-0.006 -34.506 -89.860
weapon_zm_pistol	1923.002930 8.596758 148.910553	0.815 -37.205 -89.246
