# Trouble in Terrorist Town weapon/ammo placement overrides
# For map: ttt_overlookhotel_b2
# Exported by: Zeek
setting:	replacespawns 0
weapon_ttt_smokegrenade	-2454.384521 -2697.021240 112.746849	-0.858 -1.780 -1.006
weapon_ttt_smokegrenade	-2483.321045 -2698.486816 112.710457	-1.285 -1.376 -1.510
weapon_ttt_smokegrenade	-2256.149414 -3093.358887 97.866470	8.081 -131.981 58.889
weapon_ttt_smokegrenade	-1548.264771 65.087914 544.634399	30.607 83.735 -16.704
weapon_ttt_smokegrenade	-1398.735718 -32.994949 545.816223	-49.946 -90.732 -86.896
ttt_random_weapon	617.353516 -2905.204102 87.516792	-2.355 9.734 85.801
ttt_random_weapon	639.994263 -2928.663818 86.565552	7.297 7.061 -5.683
item_ammo_smg1_ttt	1650.061157 -2726.757324 368.520660	-0.754 0.178 -0.211
item_ammo_smg1_ttt	1636.535034 -2724.585693 368.505371	-0.531 0.010 -0.411
item_ammo_smg1_ttt	1973.890381 -1890.010376 368.516388	0.139 0.660 0.414
item_ammo_smg1_ttt	1997.885376 -1886.995117 368.503052	-0.732 0.011 -0.547
weapon_ttt_m16	2437.438232 -2260.656006 368.824524	2.282 -6.207 84.188
weapon_ttt_m16	665.560669 -1875.098022 64.752434	3.969 -6.311 81.243
item_box_buckshot_ttt	-301.343109 -290.916016 102.465790	-0.574 -0.004 0.448
item_box_buckshot_ttt	-290.937317 -290.122559 102.479630	-0.458 -0.005 0.358
item_box_buckshot_ttt	-280.468597 -289.635956 102.452606	-0.686 -0.003 0.534
item_box_buckshot_ttt	-271.502075 -289.044250 102.406166	-0.732 -0.005 0.675
item_box_buckshot_ttt	-2699.862305 -2012.591553 112.963600	0.555 0.019 -0.387
item_box_buckshot_ttt	-2711.950439 -2013.130371 113.022964	-0.699 -0.005 0.586
item_box_buckshot_ttt	-2712.820801 -2028.745605 113.005608	-0.876 -0.006 0.722
item_box_buckshot_ttt	-334.137787 -433.180939 85.185272	-0.073 -0.036 -0.013
item_box_buckshot_ttt	-324.006927 -433.967834 85.156593	-0.139 -0.067 -0.067
item_box_buckshot_ttt	-311.964661 -434.020264 85.113892	0.408 0.005 0.306
ttt_random_ammo	633.502441 -2919.151367 86.257187	-0.011 -1.778 0.024
ttt_random_ammo	626.719727 -2921.217773 86.254944	-0.013 3.790 0.023
ttt_random_ammo	638.652039 -2914.341064 86.259727	0.010 -1.787 0.007
ttt_random_ammo	645.647156 -2939.484863 86.231171	0.178 -0.127 0.196
ttt_random_ammo	638.527283 -2940.255859 86.211349	-0.144 0.010 0.220
ttt_random_ammo	629.529358 -2940.810059 86.137650	-0.457 -0.111 0.652
weapon_zm_rifle	436.781799 -2922.960205 86.888779	0.240 -7.295 -88.666
weapon_zm_rifle	1454.044800 -3031.123047 367.112854	3.681 12.982 65.487
weapon_zm_mac10	1642.046997 -2706.013428 404.988983	-0.245 41.161 88.823
weapon_zm_mac10	1951.410522 -1892.444092 404.945221	-0.159 -55.165 -84.832
item_ammo_357_ttt	446.244629 -2928.901367 86.177017	0.451 0.043 0.011
item_ammo_357_ttt	436.063812 -2928.049316 86.151459	0.478 0.054 0.021
item_ammo_357_ttt	1446.247925 -3052.178223 368.360870	0.467 0.060 0.040
item_ammo_357_ttt	1450.247559 -3061.935547 368.412140	0.333 -0.371 -0.712
item_ammo_pistol_ttt	-1717.439087 -492.147827 512.487000	0.033 -0.108 0.066
item_ammo_pistol_ttt	-1732.020386 -496.556488 512.438843	0.260 -0.092 0.124
item_ammo_pistol_ttt	-1725.280273 -507.905518 520.713928	45.286 83.974 91.542
item_ammo_pistol_ttt	2430.114990 -2247.121094 368.347595	-0.132 -0.019 -0.040
item_ammo_pistol_ttt	2438.931152 -2249.323975 368.328186	-0.149 -0.018 -0.045
item_ammo_pistol_ttt	2449.397217 -2250.752686 368.444611	-0.047 -0.020 -0.014
item_ammo_pistol_ttt	1930.760986 -3130.096191 368.427856	-0.333 0.173 -0.522
item_ammo_pistol_ttt	1921.687012 -3133.166992 368.341583	0.068 -0.003 0.032
item_ammo_pistol_ttt	1911.614868 -3133.510254 368.397430	0.046 -0.003 0.018
item_ammo_pistol_ttt	-1664.649780 -2035.412598 116.393570	-0.092 -0.020 -0.028
item_ammo_pistol_ttt	-1656.346069 -2034.746582 116.385323	-0.099 -0.020 -0.030
item_ammo_pistol_ttt	-1647.964722 -2035.085571 116.362778	-0.119 -0.019 -0.036
item_ammo_pistol_ttt	-1502.749878 -2031.541870 116.317566	-0.158 -0.017 -0.048
item_ammo_pistol_ttt	-1482.689087 -2032.702515 116.360703	-0.121 -0.019 -0.036
item_ammo_pistol_ttt	-1492.944458 -2030.517700 116.338196	-0.140 -0.019 -0.042
item_ammo_pistol_ttt	633.231445 -1881.997070 64.419319	0.224 -0.071 0.363
item_ammo_pistol_ttt	640.035156 -1885.511475 64.398972	0.122 0.043 -0.015
item_ammo_pistol_ttt	682.493042 -1892.030518 65.192711	12.990 0.230 1.247
item_ammo_pistol_ttt	-516.138367 -1042.528931 67.206596	89.936 -131.297 -129.363
item_ammo_pistol_ttt	-521.989929 -1061.011475 64.352112	-0.128 -0.019 -0.039
item_ammo_pistol_ttt	-521.065369 -1079.321533 64.446892	-0.330 0.278 -0.440
item_ammo_pistol_ttt	-523.165222 -1098.093994 64.342972	-0.136 -0.019 -0.041
item_ammo_pistol_ttt	-514.102722 -1096.392944 64.358604	-0.122 -0.019 -0.037
item_ammo_pistol_ttt	-508.726563 -1075.224854 64.433846	0.918 -0.546 0.157
item_ammo_pistol_ttt	-502.673004 -1062.349487 64.448532	1.556 1.377 0.177
item_ammo_pistol_ttt	-491.001984 -1097.866699 64.454529	0.620 -0.113 0.174
item_ammo_pistol_ttt	-485.041565 -1085.382813 64.465752	1.362 0.675 0.226
item_ammo_pistol_ttt	-482.453033 -1059.570557 64.356476	-0.124 -0.019 -0.038
weapon_zm_molotov	-2442.004639 -576.162415 104.203194	-0.166 -1.526 -0.159
weapon_zm_molotov	-2239.642090 -336.849487 108.098671	20.344 -22.806 93.789
weapon_ttt_confgrenade	-2155.620361 -238.391144 99.818001	37.448 -64.835 -102.478
weapon_ttt_confgrenade	-2448.061523 -557.468689 77.475441	10.972 -57.486 -94.074
weapon_ttt_confgrenade	-372.876007 689.932739 521.901978	35.746 -23.740 -78.157
weapon_ttt_confgrenade	-204.693100 691.473083 520.740479	21.425 -12.140 -40.833
weapon_ttt_confgrenade	-2470.343994 -2713.021240 114.684174	-35.825 -55.879 -90.007
weapon_ttt_confgrenade	-2473.244629 -2679.312012 114.721695	-36.379 -55.363 -90.883
weapon_ttt_confgrenade	-1390.650269 -3087.979004 96.645180	21.062 -8.561 -28.170
weapon_ttt_confgrenade	-1679.319946 -3090.851563 96.840660	21.565 142.743 41.501
weapon_ttt_confgrenade	-1966.630615 -3091.861084 98.020096	10.401 -33.677 -88.692
item_ammo_revolver_ttt	-2028.702026 -298.001770 97.519836	0.489 0.366 -0.003
item_ammo_revolver_ttt	-2025.727051 -313.162872 97.519997	0.489 0.021 -0.003
item_ammo_revolver_ttt	-2035.694092 -305.047760 97.406433	0.433 -0.067 -0.024
item_ammo_revolver_ttt	-2023.442383 -235.655624 97.488235	0.497 0.043 -0.013
item_ammo_revolver_ttt	-2029.411987 -245.788010 97.485474	0.739 -1.357 0.019
item_ammo_revolver_ttt	-2035.549683 -238.759323 97.424850	0.638 0.068 0.020
weapon_zm_shotgun	-285.898438 -279.172424 103.100082	-0.310 -8.772 -83.968
weapon_zm_shotgun	-2688.577881 -2029.661133 113.642036	-0.258 -8.772 -83.731
weapon_zm_shotgun	-337.571442 -443.695190 85.309631	-0.424 8.959 84.079
weapon_zm_sledge	-364.243652 -1139.062744 509.735229	12.452 0.622 2.629
weapon_zm_revolver	-2028.471680 -289.908386 97.886215	2.302 -39.569 -83.828
weapon_zm_revolver	-2027.800781 -226.132782 97.991928	2.245 -24.091 -85.398
weapon_ttt_glock	-1688.871826 -491.854401 534.866638	-0.380 25.801 90.786
weapon_zm_pistol	1943.650879 -3128.752441 368.885284	0.585 -35.606 -88.845
weapon_zm_pistol	-1682.174927 -2035.458984 116.877487	0.321 -36.253 -88.639
weapon_zm_pistol	-1519.321167 -2032.481201 116.863586	0.362 -36.246 -88.490
weapon_zm_pistol	-530.476746 -1038.218140 64.862083	-0.185 -32.594 -88.694
weapon_zm_pistol	-533.365845 -1115.583252 64.947487	0.113 -36.310 -89.390
weapon_zm_pistol	-492.242737 -1115.979004 64.865425	0.356 -36.246 -88.509
weapon_zm_pistol	-489.905212 -1037.080444 64.877495	0.321 -36.253 -88.639
