# Trouble in Terrorist Town weapon/ammo placement overrides
# For map: ttt_quincyreborn_b2
# Exported by: zeek
setting:	replacespawns 1
weapon_ttt_smokegrenade	684.283875 1468.421875 -127.783485	-0.379 -1.192 -0.347
weapon_ttt_smokegrenade	2365.999756 332.435486 -96.283974	-0.244 -1.820 -0.453
weapon_ttt_smokegrenade	1968.596313 2270.059082 377.642548	-0.919 -1.611 -1.404
weapon_ttt_smokegrenade	1847.263306 727.261108 -537.301880	25.952 -73.221 108.211
weapon_ttt_smokegrenade	1847.895996 733.910156 -536.584534	-24.648 -163.985 -93.109
weapon_ttt_smokegrenade	1180.080078 905.486877 -501.735382	26.932 143.107 100.952
weapon_ttt_smokegrenade	1024.733032 1260.984497 -500.333221	26.077 -24.867 101.940
ttt_random_weapon	1061.876953 518.459656 -302.778900	1.637 5.337 -93.142
ttt_random_weapon	1062.981323 567.724121 -302.775482	1.598 5.336 -93.231
ttt_random_weapon	1568.452393 2486.200684 147.279114	1.557 6.575 -95.098
ttt_random_weapon	1585.232788 2494.606445 147.104492	1.770 2.267 -91.485
ttt_random_weapon	248.774643 3401.989502 158.747787	1.332 5.583 -93.841
ttt_random_weapon	302.054749 3406.902100 158.747787	1.332 5.558 -93.841
ttt_random_weapon	344.328552 3412.263184 160.269669	-4.480 0.321 -4.602
item_ammo_smg1_ttt	-1153.416260 2847.417725 145.415756	-0.336 0.005 0.214
item_ammo_smg1_ttt	-1137.405396 2848.213867 145.479630	0.080 0.002 -0.165
item_ammo_smg1_ttt	-305.534515 2771.133057 328.363831	1.307 -0.596 0.401
item_ammo_smg1_ttt	691.387512 288.428131 -127.569405	0.744 -0.002 0.487
item_ammo_smg1_ttt	738.535339 306.522308 -127.443077	-0.336 -1.453 -0.180
item_ammo_smg1_ttt	1685.434937 2251.594971 344.506226	-0.533 0.011 -0.418
item_ammo_smg1_ttt	1694.794678 2504.281494 146.510834	0.525 -0.446 -0.184
item_ammo_smg1_ttt	1704.012085 2484.478271 146.444687	0.034 0.186 -0.015
item_ammo_smg1_ttt	-632.589844 1191.306641 -466.485138	-23.775 -5.434 -49.558
item_ammo_smg1_ttt	492.401642 1373.470337 -491.748566	20.064 1.065 20.324
weapon_ttt_m16	2869.938965 2291.330078 112.828171	2.048 0.559 83.525
weapon_ttt_m16	327.525848 1628.830933 -127.137856	2.144 -6.716 83.920
weapon_ttt_m16	1224.291870 89.129829 -127.145126	2.236 -5.790 83.993
weapon_ttt_m16	2729.589600 770.579529 -303.203400	2.842 -13.041 82.992
weapon_ttt_m16	1645.593384 2491.039795 146.826569	2.271 -6.198 84.172
weapon_ttt_m16	-179.329895 1485.757568 -479.230499	-10.671 7.284 118.853
item_box_buckshot_ttt	-2356.627930 1845.576904 112.412361	-0.782 -0.005 0.697
item_box_buckshot_ttt	1942.312988 2674.205811 -127.538589	-0.403 -0.006 0.358
item_box_buckshot_ttt	2344.149414 366.522308 -71.988716	-0.008 -0.003 0.007
item_box_buckshot_ttt	763.333984 1326.684082 -498.186981	-1.389 -1.223 19.543
item_box_buckshot_ttt	1241.819580 554.263489 -79.652740	0.714 0.003 -0.570
ttt_random_ammo	-1082.848755 2852.364258 145.330994	-0.045 -0.000 -0.029
ttt_random_ammo	-1067.753296 2852.272461 145.399597	-0.525 -0.004 0.586
ttt_random_ammo	-1055.276855 2852.551758 145.370499	-0.087 -0.000 0.042
ttt_random_ammo	-1043.399048 2852.823975 145.349747	-0.049 -0.000 -0.014
ttt_random_ammo	1972.961426 2110.396240 -91.638481	0.065 -0.000 -0.011
ttt_random_ammo	1942.150757 2109.421143 -91.617493	0.212 0.001 0.200
ttt_random_ammo	1916.530640 2109.274658 -91.581215	1.515 0.036 1.821
ttt_random_ammo	1917.474609 2130.739502 -91.655441	0.048 0.000 -0.019
ttt_random_ammo	1942.770386 2131.843994 -91.618980	0.185 0.001 0.166
ttt_random_ammo	1972.095703 2131.201172 -91.605057	1.040 0.013 1.213
ttt_random_ammo	1974.230225 2111.264893 -119.587181	1.696 0.034 2.048
ttt_random_ammo	1944.019409 2109.800537 -119.667206	0.046 0.000 -0.028
ttt_random_ammo	1910.912354 2110.806641 -119.589058	1.625 0.034 1.948
ttt_random_ammo	1910.825562 2133.594727 -119.625511	0.118 0.000 0.082
ttt_random_ammo	1942.745972 2135.243164 -119.618988	0.186 0.001 0.167
ttt_random_ammo	1974.396240 2134.886719 -119.674713	0.046 0.000 -0.031
ttt_random_ammo	1051.023071 505.065582 -303.617889	-0.171 -0.001 0.147
ttt_random_ammo	1067.095093 506.005188 -303.617859	-0.173 -0.001 0.150
ttt_random_ammo	1044.325073 550.799805 -303.635376	-0.072 -0.000 0.019
ttt_random_ammo	1064.356323 550.622559 -303.541504	-1.297 -0.032 1.579
ttt_random_ammo	1097.626465 507.712402 -303.550751	-1.468 -0.034 1.776
ttt_random_ammo	1095.517456 550.306030 -303.525879	-0.742 -0.022 0.902
ttt_random_ammo	1551.604370 2517.375488 146.399582	-0.210 0.011 0.192
ttt_random_ammo	1558.747070 2515.427002 146.368546	-0.080 -0.000 0.033
ttt_random_ammo	1571.853149 2514.526123 146.453583	-1.209 -0.030 1.455
ttt_random_ammo	1581.903442 2517.322998 146.456116	-0.081 0.116 0.005
ttt_random_ammo	1586.010376 2512.435791 146.459167	-0.299 1.555 0.194
ttt_random_ammo	1614.032104 2514.246582 146.328491	-0.045 -0.000 -0.030
ttt_random_ammo	1525.515381 2511.958008 146.362503	-0.065 -0.000 0.011
ttt_random_ammo	1528.227539 2493.243164 146.436783	-1.625 -0.034 1.951
ttt_random_ammo	1536.613647 2507.952148 146.376297	-0.116 -0.000 0.080
ttt_random_ammo	1537.237305 2494.682129 146.376297	-0.116 -0.000 0.081
ttt_random_ammo	1617.157959 2508.774658 146.362503	-0.065 -0.000 0.011
ttt_random_ammo	1612.468506 2494.424072 146.403931	-0.686 -0.006 0.782
ttt_random_ammo	-703.833374 2520.963867 157.993286	0.004 0.119 0.010
ttt_random_ammo	-728.726135 2520.618164 157.990799	0.008 0.824 0.000
ttt_random_ammo	-750.345154 2520.739014 157.987137	-0.019 2.055 -0.001
ttt_random_ammo	-644.232788 2520.950928 179.985199	-0.081 5.324 -0.012
ttt_random_ammo	-675.638489 2520.968750 179.981567	-0.159 3.515 -0.021
ttt_random_ammo	-705.543396 2521.013672 179.958115	-0.226 2.011 -0.045
ttt_random_ammo	-727.354004 2520.975586 179.922333	-0.519 3.297 -0.188
ttt_random_ammo	-750.296326 2520.948975 179.844727	-0.397 2.152 -0.036
ttt_random_ammo	-269.711731 2806.580078 135.994736	-0.000 0.015 -0.000
ttt_random_ammo	-256.545654 2805.755127 135.994736	-0.000 0.016 -0.000
ttt_random_ammo	-214.313217 2803.169922 135.994720	-0.000 0.170 0.000
ttt_random_ammo	-197.930313 2803.530518 135.994705	-0.001 0.016 -0.001
ttt_random_ammo	-172.118057 2804.206543 135.994659	-0.002 0.015 -0.002
ttt_random_ammo	-262.132660 2811.734131 179.994110	0.042 -0.808 -0.058
ttt_random_ammo	-156.436798 2802.172363 135.994614	-0.004 -0.016 0.004
ttt_random_ammo	-253.003616 2811.514404 179.980850	1.217 -0.007 -1.570
ttt_random_ammo	-216.374008 2811.576904 179.983231	0.884 -0.122 -1.176
ttt_random_ammo	-200.599991 2811.556885 179.981979	0.936 -0.227 -1.259
ttt_random_ammo	-170.282837 2811.580566 179.980652	0.801 -0.110 -1.159
ttt_random_ammo	-157.330460 2811.594482 179.979218	0.717 -0.000 -1.111
ttt_random_ammo	237.061127 3411.504150 135.994736	-0.000 0.006 0.000
ttt_random_ammo	260.204742 3411.488037 135.994720	-0.001 -0.008 0.001
ttt_random_ammo	291.924896 3411.480957 135.994644	-0.002 -0.014 0.002
ttt_random_ammo	313.688660 3411.724121 135.994736	-0.004 0.009 0.005
ttt_random_ammo	338.219177 3411.482910 135.993790	-0.016 -0.014 0.018
ttt_random_ammo	354.683380 3411.515869 135.993927	-0.032 0.004 0.027
ttt_random_ammo	353.710175 3411.588623 179.983643	0.854 -0.035 -1.135
ttt_random_ammo	336.420258 3411.610352 179.984177	0.634 -0.390 -0.902
ttt_random_ammo	315.478882 3411.603271 179.981842	0.734 -0.000 -1.062
ttt_random_ammo	292.949493 3411.609863 179.979553	0.639 -0.000 -1.024
ttt_random_ammo	261.676910 3411.563965 179.958633	0.249 -0.391 -1.166
ttt_random_ammo	240.804306 3411.732666 179.937576	0.935 0.735 -0.143
weapon_zm_rifle	2241.110352 2159.394043 343.144562	3.349 13.319 64.960
weapon_zm_rifle	1482.731445 2498.053955 145.108582	3.693 12.985 65.479
weapon_zm_mac10	-1172.896362 2849.468262 146.227936	-0.737 -51.675 -88.176
weapon_zm_mac10	-302.683014 2791.772217 329.233765	-0.723 -51.675 -88.221
weapon_zm_mac10	699.244934 306.116425 -126.763504	-0.268 -31.379 -88.184
weapon_zm_mac10	1681.695435 2266.063721 345.270386	0.060 -50.575 -88.991
weapon_zm_mac10	1723.824829 2495.690186 147.282837	0.011 -45.334 -88.807
weapon_zm_mac10	-631.958618 1197.449341 -477.844940	5.442 -15.689 -41.961
weapon_zm_mac10	493.174683 1384.482422 -488.351135	18.259 -28.382 -41.608
ttt_playerspawn	3177.573730 208.487305 -126.453430	0.076 0.000 -0.077
ttt_playerspawn	1553.163208 2055.281738 113.517960	-0.063 -0.000 0.063
ttt_playerspawn	2555.235596 2025.050781 113.514168	-0.066 -0.000 0.066
ttt_playerspawn	241.256866 3290.381104 113.557999	0.058 0.000 -0.062
ttt_playerspawn	-424.311279 3299.760254 113.514755	0.122 -0.000 -0.122
ttt_playerspawn	-977.844971 3330.359619 113.523293	0.110 0.000 -0.110
ttt_playerspawn	172.301773 1699.729858 233.551727	-0.034 0.000 -0.034
ttt_playerspawn	43.120850 1802.349731 233.528595	0.051 0.000 0.051
ttt_playerspawn	-1931.315796 2046.229614 345.527527	0.052 -0.000 -0.051
ttt_playerspawn	-1972.193726 2361.961182 345.538605	0.044 -0.000 0.044
ttt_playerspawn	-1884.692627 2618.879395 345.571075	0.021 -0.000 -0.020
ttt_playerspawn	-1628.051758 2690.871582 345.548767	0.036 -0.000 -0.036
ttt_playerspawn	-301.705627 2787.025146 342.971405	0.055 -0.014 -0.049
ttt_playerspawn	-2446.509521 1941.641846 225.594833	-0.195 0.000 -0.204
ttt_playerspawn	476.869263 2286.377686 345.573151	0.019 -0.000 -0.019
ttt_playerspawn	321.045197 2380.406494 345.563202	0.026 -0.000 -0.026
ttt_playerspawn	348.611725 2218.935547 -126.463287	-0.045 -0.000 0.045
ttt_playerspawn	272.653961 2109.625000 -126.411125	-0.121 0.000 -0.105
ttt_playerspawn	119.214127 2175.874023 -126.427261	0.019 0.000 0.019
ttt_playerspawn	156.388062 2405.039307 -126.456108	0.040 0.000 0.040
ttt_playerspawn	208.631332 1774.869019 -126.447540	-0.034 -0.000 0.034
ttt_playerspawn	311.471680 1923.534790 -126.425674	0.018 0.000 0.018
item_ammo_357_ttt	2278.233887 2143.202881 344.418854	0.553 -0.046 -0.015
item_ammo_357_ttt	2269.429932 2143.201416 344.399292	0.761 -0.059 0.001
item_ammo_357_ttt	1467.032959 2512.092773 146.339142	0.464 0.067 0.048
item_ammo_357_ttt	1492.695190 2513.826416 146.404984	0.982 0.272 -0.009
item_ammo_pistol_ttt	-247.370865 2804.481201 157.998444	-0.000 0.048 0.000
item_ammo_pistol_ttt	-239.693909 2803.273438 157.998444	-0.000 0.054 0.000
item_ammo_pistol_ttt	-209.918045 2801.741699 157.998444	-0.000 0.309 0.000
item_ammo_pistol_ttt	-201.148682 2804.448486 157.998444	-0.000 0.034 0.000
item_ammo_pistol_ttt	-154.576447 2804.496338 157.998444	-0.000 -0.019 0.000
item_ammo_pistol_ttt	-165.839737 2804.451904 157.998428	-0.000 0.016 0.000
item_ammo_pistol_ttt	2854.966309 2306.850098 112.380066	-0.104 -0.020 -0.031
item_ammo_pistol_ttt	2868.809326 2307.400635 112.340607	-0.138 -0.019 -0.042
item_ammo_pistol_ttt	3139.021729 216.982239 -124.706207	-89.326 176.215 -147.686
item_ammo_pistol_ttt	2593.985352 2041.909058 112.335754	-0.143 -0.019 -0.043
item_ammo_pistol_ttt	1583.644775 2049.571777 112.413620	-0.074 -0.020 -0.023
item_ammo_pistol_ttt	-945.644043 3327.388916 113.314964	-0.362 -0.988 -6.249
item_ammo_pistol_ttt	-399.612427 3298.088623 112.381844	-0.102 -0.020 -0.031
item_ammo_pistol_ttt	263.453308 3292.248779 112.338196	0.140 0.019 -0.042
item_ammo_pistol_ttt	75.818398 1839.250854 235.281815	89.763 -179.889 -177.276
item_ammo_pistol_ttt	199.013870 1731.422852 235.205780	89.853 10.942 10.267
item_ammo_pistol_ttt	-1599.640503 2695.551758 344.335785	-0.142 -0.019 -0.043
item_ammo_pistol_ttt	-1848.719238 2620.373291 344.396729	-0.089 -0.020 -0.027
item_ammo_pistol_ttt	-1944.714722 2367.864258 344.427856	0.014 0.031 0.002
item_ammo_pistol_ttt	-1903.841187 2062.141357 344.374573	-0.109 -0.020 -0.033
item_ammo_pistol_ttt	-2422.709961 1936.516968 227.264908	89.860 175.710 -179.993
item_ammo_pistol_ttt	506.848480 2283.121338 344.330780	-0.147 -0.018 -0.044
item_ammo_pistol_ttt	350.462128 2370.554688 344.325623	-0.151 -0.018 -0.046
item_ammo_pistol_ttt	298.371613 2117.273682 -127.676781	0.034 0.028 0.005
item_ammo_pistol_ttt	307.075012 2118.443115 -127.584984	0.016 0.031 0.002
item_ammo_pistol_ttt	205.701126 1813.385498 -127.502586	-0.003 16.967 -0.009
item_ammo_pistol_ttt	214.222000 1804.774658 -127.547722	-0.763 -0.607 -0.016
item_ammo_pistol_ttt	282.252563 1646.750488 -127.629250	0.112 0.020 -0.034
item_ammo_pistol_ttt	305.190247 1956.253784 -125.813591	0.172 -2.966 11.004
item_ammo_pistol_ttt	314.995880 1950.672241 -127.525192	0.548 -0.209 0.047
item_ammo_pistol_ttt	130.804993 2147.600342 -127.501312	-0.000 -2.480 -0.000
item_ammo_pistol_ttt	137.186005 2147.924805 -127.571846	0.281 0.015 -0.064
item_ammo_pistol_ttt	128.431488 2380.259277 -127.502388	0.022 -16.251 0.000
item_ammo_pistol_ttt	133.583130 2376.055420 -127.501900	1.203 -16.752 -0.386
item_ammo_pistol_ttt	1193.041382 81.416031 -127.607246	-0.120 -0.012 -0.023
item_ammo_pistol_ttt	2744.781006 769.254150 -302.733246	-1.240 0.809 -5.653
item_ammo_pistol_ttt	1671.975342 2505.350586 146.396698	-0.089 -0.020 -0.027
item_ammo_pistol_ttt	1678.367798 2485.165039 146.338196	-0.140 -0.019 -0.042
item_ammo_pistol_ttt	-180.442459 1504.052002 -482.265869	-14.287 -27.968 13.520
weapon_zm_molotov	301.029541 1648.870361 -127.800911	-0.997 -1.479 -0.717
weapon_zm_molotov	686.792969 1625.891968 -126.345245	19.436 -111.456 -90.701
weapon_zm_molotov	1027.903442 492.083710 -71.844826	-1.596 -1.414 -1.625
weapon_zm_molotov	1140.573120 492.670044 -71.819908	-1.064 -1.539 -1.082
weapon_zm_molotov	1080.061401 251.258560 -74.246941	-0.341 -1.842 -0.399
weapon_zm_molotov	2289.205811 351.512329 -96.278954	-0.113 -1.700 -0.316
weapon_zm_molotov	-2024.260986 2474.068115 -503.934692	12.844 51.318 -95.413
weapon_zm_molotov	-2000.973999 2441.025391 -501.020447	23.069 -4.217 -99.461
weapon_zm_molotov	-639.675354 1069.426025 -505.430115	21.658 -56.663 -90.391
weapon_zm_molotov	-968.534119 1178.818237 -506.827942	-1.014 1.492 2.675
weapon_ttt_confgrenade	690.111572 1546.064209 -125.930931	13.076 -31.859 -89.412
weapon_ttt_confgrenade	1291.671021 2123.493652 112.856667	22.677 -24.156 -47.225
weapon_ttt_confgrenade	2034.728882 2166.882324 346.243744	12.916 -32.482 -92.282
weapon_ttt_confgrenade	1699.683472 2314.423828 344.790314	20.133 -18.817 -44.863
weapon_ttt_confgrenade	1837.772095 721.237549 -538.033325	31.783 -173.802 95.328
weapon_ttt_confgrenade	1841.126831 723.913818 -538.692444	17.438 -7.155 94.850
weapon_ttt_confgrenade	50.686871 1521.787964 -505.282745	-37.548 -63.624 -89.855
weapon_ttt_confgrenade	-176.504532 1316.229004 -507.244537	-4.607 -2.914 1.752
item_ammo_revolver_ttt	-656.129822 2526.098389 157.969635	0.487 0.062 0.000
item_ammo_revolver_ttt	-667.440552 2526.924072 157.969788	0.484 -0.079 -0.004
item_ammo_revolver_ttt	-477.180725 2727.144531 328.380371	0.469 0.058 0.033
item_ammo_revolver_ttt	-494.726532 2727.562500 328.348663	0.465 0.064 0.044
item_ammo_revolver_ttt	-2958.370117 3494.960205 112.401268	1.210 0.380 -0.100
item_ammo_revolver_ttt	2853.267822 2601.805420 -127.671783	0.449 0.067 0.057
item_ammo_revolver_ttt	2862.384277 2602.396729 -127.614700	0.461 0.054 0.034
item_ammo_revolver_ttt	372.603149 2213.991699 -127.568939	0.758 0.083 -0.749
item_ammo_revolver_ttt	378.795715 2219.584961 -127.549561	1.033 0.259 -0.674
weapon_zm_shotgun	-2361.369629 1824.278687 113.063362	-0.423 -8.899 -83.822
weapon_zm_shotgun	1939.400879 2686.206543 -126.879784	-0.456 -8.878 -84.356
weapon_zm_shotgun	2308.612305 365.025055 -71.339653	-0.479 -9.197 -84.734
weapon_zm_shotgun	755.283142 1321.718018 -499.650604	-6.156 13.363 101.362
weapon_zm_shotgun	-918.893494 2974.862549 113.064835	-0.423 -8.898 -83.836
weapon_zm_shotgun	1233.995361 564.886292 -78.908554	-0.339 -8.460 -84.084
weapon_zm_sledge	1696.922974 2693.687500 -130.191544	18.634 -0.326 2.992
weapon_zm_sledge	2697.409912 574.590271 -300.994324	-6.274 16.160 88.418
weapon_zm_sledge	2162.678711 1100.346924 -162.191559	18.634 -0.127 2.992
weapon_zm_sledge	1609.894653 1102.753174 -162.191559	18.634 -0.119 2.992
weapon_zm_sledge	2702.594238 1100.759521 -162.191559	18.634 -0.123 2.992
weapon_zm_revolver	-645.888611 2524.861572 158.469849	2.275 -24.031 -85.316
weapon_zm_revolver	-486.462402 2709.203613 328.970337	1.787 -19.185 -86.165
weapon_zm_revolver	-2965.579346 3503.115967 112.843185	2.486 -40.956 -84.818
weapon_zm_revolver	2854.525391 2612.592041 -127.029465	1.930 -19.550 -85.918
weapon_zm_revolver	376.966553 2208.986816 -127.055824	3.170 24.620 83.586
weapon_zm_revolver	849.427795 -565.921204 -127.147781	3.222 -16.533 -83.689
weapon_ttt_glock	-261.400940 2812.543945 158.602020	-0.183 24.825 90.288
weapon_ttt_glock	-222.208588 2803.552246 158.602020	-0.183 26.195 90.288
weapon_ttt_glock	1915.671875 2130.025391 -62.889507	-0.719 25.648 91.309
weapon_ttt_glock	3162.528809 229.920975 -126.965759	-0.603 15.520 -90.317
weapon_ttt_glock	2588.756836 2030.254883 113.110207	-0.829 25.114 91.315
weapon_ttt_glock	1593.016113 2033.713379 113.106270	-0.505 25.141 90.800
weapon_ttt_glock	66.101440 1799.984253 233.109924	-0.628 25.449 91.220
weapon_ttt_glock	-2415.376953 1900.048584 224.996353	-0.862 -7.160 -90.489
weapon_ttt_glock	500.594177 2266.295654 345.111328	-0.708 25.441 91.389
weapon_ttt_glock	300.265167 1955.891846 -126.933540	0.178 -34.048 -89.829
weapon_ttt_glock	116.031647 2151.555664 -126.890823	-0.583 25.452 91.127
weapon_ttt_glock	127.173615 2398.364990 -126.893631	-0.519 30.469 90.815
weapon_zm_pistol	-180.859940 2806.690186 158.485291	0.000 -36.050 -89.799
weapon_zm_pistol	1970.221558 2129.372070 -63.119324	0.311 -36.258 -88.673
weapon_zm_pistol	1940.556396 2130.139648 -63.167484	0.454 -36.223 -88.157
weapon_zm_pistol	-948.237366 3315.226563 112.872269	0.012 -34.299 -89.054
weapon_zm_pistol	-395.873932 3279.648926 112.910469	0.790 -37.054 -89.234
weapon_zm_pistol	261.405579 3276.110107 112.884041	1.103 -37.231 -89.050
weapon_zm_pistol	205.415680 1703.437012 232.980225	0.221 -36.555 -89.997
weapon_zm_pistol	-1596.234375 2673.873779 344.979187	0.264 -36.560 -90.037
weapon_zm_pistol	-1856.568848 2597.443115 344.981750	0.158 -36.550 -89.942
weapon_zm_pistol	-1952.086548 2348.518555 344.843262	0.138 -37.958 -88.151
weapon_zm_pistol	-1907.588135 2030.008423 344.978271	0.303 -36.567 -90.072
weapon_zm_pistol	340.897186 2356.807617 345.001373	-0.441 -38.100 -90.391
weapon_zm_pistol	293.215546 2104.122803 -126.949913	0.872 22.487 89.812
weapon_zm_pistol	197.348648 1800.326538 -127.232483	-0.034 -40.711 -88.030
